<?xml version="1.0" standalone="no"?>
<!DOCTYPE svg PUBLIC "-//W3C//DTD SVG 1.1//EN" "http://www.w3.org/Graphics/SVG/1.1/DTD/svg11.dtd" >
<svg xmlns="http://www.w3.org/2000/svg" xmlns:xlink="http://www.w3.org/1999/xlink" version="1.1">
<metadata>
Created by FontForge 20170731 at Wed Jun  5 20:44:53 2002
 By Aleksey,,,
Copyright (c) 1990, 2002 Adobe Systems Incorporated.  All Rights Reserved. (c) 1981, 2002 Heidelberger Druckmaschinen AG. All rights reserved.
</metadata>
<defs>
<font id="HelveticaNeueLTStd-BdEx" horiz-adv-x="778" >
  <font-face 
    font-family="HelveticaNeueLT Std Extended"
    font-weight="700"
    font-stretch="expanded"
    units-per-em="1000"
    panose-1="2 11 8 7 4 5 2 3 2 4"
    ascent="800"
    descent="-200"
    x-height="536"
    cap-height="714"
    bbox="-145 -213 1163 984"
    underline-thickness="50"
    underline-position="-200"
    unicode-range="U+0020-FB02"
  />
<missing-glyph horiz-adv-x="500" 
d="M0 0v700h500v-700h-500zM250 395l170 255h-340zM280 350l170 -255v510zM80 50h340l-170 255zM50 605v-510l170 255z" />
    <glyph glyph-name="fi" unicode="fi" horiz-adv-x="722" 
d="M486 0v536h176v-536h-176zM486 602v124h176v-124h-176zM117 0v418h-111v118h111v27q0 106 41.5 138.5t166.5 32.5q25 0 111 -2v-110q-60 2 -89 2q-27 0 -40.5 -10.5t-13.5 -44.5v-33h141v-118h-141v-418h-176z" />
    <glyph glyph-name="fl" unicode="fl" horiz-adv-x="722" 
d="M486 0v726h176v-726h-176zM117 0v418h-111v118h111v27q0 106 41.5 138.5t166.5 32.5q25 0 111 -2v-110q-60 2 -89 2q-27 0 -40.5 -10.5t-13.5 -44.5v-33h141v-118h-141v-418h-176z" />
    <glyph glyph-name=".notdef" horiz-adv-x="500" 
d="M0 0v700h500v-700h-500zM250 395l170 255h-340zM280 350l170 -255v510zM80 50h340l-170 255zM50 605v-510l170 255z" />
    <glyph glyph-name=".null" horiz-adv-x="0" 
 />
    <glyph glyph-name="nonmarkingreturn" horiz-adv-x="333" 
 />
    <glyph glyph-name="space" unicode=" " horiz-adv-x="370" 
 />
    <glyph glyph-name="exclam" unicode="!" horiz-adv-x="370" 
d="M118 231l-30 483h194l-30 -483h-134zM88 0v170h194v-170h-194z" />
    <glyph glyph-name="quotedbl" unicode="&#x22;" horiz-adv-x="592" 
d="M338 361v353h124v-353h-124zM130 361v353h124v-353h-124z" />
    <glyph glyph-name="numbersign" unicode="#" horiz-adv-x="816" 
d="M193 0l25 176h-84v110h99l18 122h-84v110h99l25 176h110l-25 -176h112l25 176h110l-25 -176h84v-110h-99l-18 -122h84v-110h-99l-25 -176h-110l25 176h-112l-25 -176h-110zM455 286l18 122h-112l-18 -122h112z" />
    <glyph glyph-name="dollar" unicode="$" horiz-adv-x="816" 
d="M452 274v-170q107 12 107 91q0 37 -25.5 53t-81.5 26zM378 437v153q-50 0 -87.5 -18t-37.5 -59q0 -37 25 -50.5t100 -25.5zM378 104v181l-88 14q-30 5 -47.5 8.5t-48.5 12.5t-50 22.5t-39 33.5t-30 50t-10 68q0 76 44.5 126t112 71t156.5 23v83h74v-83q56 -4 102.5 -17
t89 -37t68.5 -67t29 -100h-200q-12 76 -89 91v-159l102 -16q211 -34 211 -190q0 -230 -313 -239v-107h-74v107q-169 7 -245 63.5t-82 175.5h206q3 -98 121 -115z" />
    <glyph glyph-name="percent" unicode="%" horiz-adv-x="1037" 
d="M156 520q0 -108 86 -108t86 108t-86 108t-86 -108zM242 -20l454 734h98l-454 -734h-98zM709 174q0 -108 86 -108t86 108t-86 108t-86 -108zM38 520q0 194 204 194t204 -194t-204 -194t-204 194zM591 174q0 194 204 194t204 -194t-204 -194t-204 194z" />
    <glyph glyph-name="ampersand" unicode="&#x26;" horiz-adv-x="926" 
d="M543 154l-201 183q-38 -14 -67.5 -45.5t-29.5 -67.5q0 -59 44 -89.5t99 -30.5q95 0 155 50zM705 0l-72 68q-121 -88 -271 -88q-137 0 -221 57t-84 168q0 80 52.5 133t142.5 76q-38 33 -55 60.5t-17 69.5q0 61 36.5 101t86.5 54.5t110 14.5q108 0 177.5 -41t69.5 -118
q0 -62 -43 -101.5t-109 -59.5l154 -142q24 23 50 59.5t37 63.5l110 -53q-22 -51 -44 -84.5t-58 -67.5l185 -170h-237zM350 555q0 -46 64 -93q88 37 88 89q0 27 -24 43t-51 16q-34 0 -55.5 -14t-21.5 -41z" />
    <glyph glyph-name="quotesingle" unicode="'" horiz-adv-x="370" 
d="M123 361v353h124v-353h-124z" />
    <glyph glyph-name="parenleft" unicode="(" horiz-adv-x="444" 
d="M393 -190h-123q-90 89 -142 208t-52 244t52 244t142 208h123q-141 -208 -141 -452t141 -452z" />
    <glyph glyph-name="parenright" unicode=")" horiz-adv-x="444" 
d="M174 -190h-123q141 208 141 452t-141 452h123q90 -89 142 -208t52 -244t-52 -244t-142 -208z" />
    <glyph glyph-name="asterisk" unicode="*" horiz-adv-x="464" 
d="M63 380l92 106l-131 43l34 98l125 -49l-6 136h110l-6 -136l125 49l34 -98l-131 -43l92 -106l-81 -62l-88 110l-88 -110z" />
    <glyph glyph-name="plus" unicode="+" horiz-adv-x="600" 
d="M238 0v191h-191v124h191v191h124v-191h191v-124h-191v-191h-124z" />
    <glyph glyph-name="comma" unicode="," horiz-adv-x="370" 
d="M88 0v170h194v-128q0 -97 -49 -154.5t-145 -70.5v70q48 13 67 37.5t23 75.5h-90z" />
    <glyph glyph-name="hyphen" unicode="-" horiz-adv-x="481" 
d="M62 218v136h357v-136h-357z" />
    <glyph glyph-name="period" unicode="." horiz-adv-x="370" 
d="M88 0v170h194v-170h-194z" />
    <glyph glyph-name="slash" unicode="/" horiz-adv-x="426" 
d="M-2 -20l296 754h134l-295 -754h-135z" />
    <glyph glyph-name="zero" unicode="0" horiz-adv-x="816" 
d="M230 347q0 -104 42.5 -169.5t135.5 -65.5t135.5 65.5t42.5 169.5t-42.5 169.5t-135.5 65.5t-135.5 -65.5t-42.5 -169.5zM42 347q0 175 95.5 270t270.5 95t270.5 -95t95.5 -270q0 -169 -93.5 -267t-272.5 -98q-175 0 -270.5 95t-95.5 270z" />
    <glyph glyph-name="one" unicode="1" horiz-adv-x="556" 
d="M247 0v443h-210v124q123 2 172.5 24.5t78.5 102.5h141v-694h-182z" />
    <glyph glyph-name="two" unicode="2" horiz-adv-x="816" 
d="M253 136h503v-136h-714q4 85 34.5 148.5t76.5 100t100.5 62.5t108.5 42.5t98.5 32.5t72 40t27.5 58q0 44 -35.5 71t-97.5 27q-66 0 -112.5 -31t-54.5 -100h-200q3 72 32.5 124t80 81.5t111.5 42.5t136 13q91 0 159 -20t106 -54t56.5 -73.5t18.5 -83.5q0 -41 -14 -73
t-35.5 -54.5t-63 -43.5t-81 -35.5t-105.5 -34.5l-81 -25q-91 -32 -127 -79z" />
    <glyph glyph-name="three" unicode="3" horiz-adv-x="816" 
d="M306 299v124h147q44 0 66.5 23t22.5 53q0 44 -39 66.5t-103 22.5q-55 0 -94 -24t-49 -71h-194q25 219 358 219q164 0 242.5 -55t78.5 -146q0 -53 -30 -88t-83 -46v-2q64 -13 102.5 -57.5t38.5 -106.5q0 -36 -10 -67.5t-36 -62t-67 -52t-108 -34.5t-153 -13
q-166 0 -257.5 57.5t-96.5 187.5h194q1 -61 51.5 -88t118.5 -27q76 0 117 25.5t41 72.5q0 46 -38 67.5t-90 21.5h-130z" />
    <glyph glyph-name="four" unicode="4" horiz-adv-x="816" 
d="M479 258v294l-260 -294h260zM479 0v134h-439v131l388 429h221v-436h127v-124h-127v-134h-170z" />
    <glyph glyph-name="five" unicode="5" horiz-adv-x="816" 
d="M71 304l67 390h580v-130h-453l-24 -136q34 21 91.5 31.5t106.5 10.5q60 0 114 -12t103.5 -37t79 -73t29.5 -112q0 -85 -51.5 -144t-130.5 -84.5t-179 -25.5q-62 0 -119 10t-113.5 33.5t-91.5 70t-38 111.5h200q13 -53 53 -74t107 -21q169 0 169 119q0 35 -18 60.5t-46 38
t-54.5 17.5t-52.5 5q-96 0 -145 -48h-184z" />
    <glyph glyph-name="six" unicode="6" horiz-adv-x="816" 
d="M757 509h-191q-16 43 -53 58t-91 15q-95 0 -137 -49t-44 -143q73 69 207 69q61 0 113.5 -10t103 -33.5t80 -71t29.5 -113.5q0 -120 -94 -184.5t-250 -64.5q-377 0 -377 363q0 77 18.5 139t60 115.5t119.5 83t187 29.5q55 0 105 -9.5t98 -31t79 -63.5t37 -99zM410 335
q-74 0 -113 -29.5t-39 -83.5q0 -47 40.5 -78.5t131.5 -31.5q66 0 108 29t42 80q0 47 -38 80t-132 34z" />
    <glyph glyph-name="seven" unicode="7" horiz-adv-x="759" 
d="M23 558v136h704v-153q-56 -56 -91.5 -94t-84 -96.5t-79 -108t-58 -113.5t-39.5 -129h-236q12 83 49 161t97.5 151.5t112 125t129.5 120.5h-504z" />
    <glyph glyph-name="eight" unicode="8" horiz-adv-x="816" 
d="M407 313q-77 0 -121 -24.5t-44 -75.5q0 -101 165 -101q167 0 167 101q0 100 -167 100zM408 -18q-75 0 -137.5 11.5t-115.5 36t-83 69.5t-30 107q0 63 38 107.5t103 61.5v2q-111 40 -114 145q1 46 23 81t56 55t81 33t89.5 17t89.5 4t89.5 -4t89.5 -17t80 -33t55 -55
t21 -81q3 -105 -110 -145v-2q65 -17 103 -61.5t38 -107.5q0 -62 -30 -107t-83 -69.5t-115.5 -36t-137.5 -11.5zM407 423q142 0 142 82q0 40 -41.5 58.5t-100.5 18.5q-144 0 -144 -77q0 -82 144 -82z" />
    <glyph glyph-name="nine" unicode="9" horiz-adv-x="816" 
d="M59 185h191q16 -43 53 -58t91 -15q95 0 137 49t44 143q-73 -69 -207 -69q-61 0 -113.5 10t-103 33.5t-80 71t-29.5 113.5q0 120 94 184.5t250 64.5q377 0 377 -363q0 -77 -18.5 -139t-60 -115.5t-119.5 -83t-187 -29.5q-55 0 -105 9.5t-98 31t-79 63.5t-37 99zM406 359
q74 0 113 29.5t39 83.5q0 47 -40.5 78.5t-131.5 31.5q-66 0 -108 -29t-42 -80q0 -47 38 -80t132 -34z" />
    <glyph glyph-name="colon" unicode=":" horiz-adv-x="370" 
d="M88 366v170h194v-170h-194zM88 0v170h194v-170h-194z" />
    <glyph glyph-name="semicolon" unicode=";" horiz-adv-x="370" 
d="M88 0v170h194v-128q0 -97 -49 -154.5t-145 -70.5v70q48 13 67 37.5t23 75.5h-90zM88 366v170h194v-170h-194z" />
    <glyph glyph-name="less" unicode="&#x3c;" horiz-adv-x="600" 
d="M47 201v104l506 209v-124l-339 -137l339 -137v-124z" />
    <glyph glyph-name="equal" unicode="=" horiz-adv-x="600" 
d="M47 300v124h506v-124h-506zM47 82v124h506v-124h-506z" />
    <glyph glyph-name="greater" unicode="&#x3e;" horiz-adv-x="600" 
d="M553 305v-104l-506 -209v124l339 137l-339 137v124z" />
    <glyph glyph-name="question" unicode="?" horiz-adv-x="759" 
d="M459 230h-176q0 53 24 90t58.5 57.5t69 37.5t58.5 41t24 57q0 40 -38.5 64.5t-92.5 24.5q-63 0 -103.5 -31.5t-46.5 -96.5h-188q2 67 30 117t74.5 78.5t101 42.5t115.5 14q158 0 250 -55.5t92 -161.5q0 -49 -24.5 -86t-60 -58.5t-71.5 -40t-63.5 -42t-32.5 -52.5zM274 0
v170h194v-170h-194z" />
    <glyph glyph-name="at" unicode="@" horiz-adv-x="800" 
d="M297 324q0 -36 20.5 -60.5t53.5 -24.5q50 0 85 43t35 92q0 34 -23 57t-55 23q-47 0 -81.5 -42t-34.5 -88zM528 490l13 53h89l-59 -254q-6 -28 -6 -41q0 -21 19 -21q38 0 72.5 50t34.5 127q0 108 -78 173t-196 65q-125 0 -204.5 -83t-79.5 -204q0 -123 83 -203t208 -80
q123 0 221 68h90q-53 -77 -134.5 -118.5t-179.5 -41.5q-167 0 -282.5 107.5t-115.5 269.5q0 160 115 268.5t280 108.5q144 0 251.5 -86.5t107.5 -221.5q0 -61 -20.5 -112.5t-50.5 -83.5t-65.5 -54.5t-65.5 -31.5t-51 -9q-60 0 -64 54h-2q-50 -54 -122 -54q-58 0 -103.5 48
t-45.5 125q0 98 61 174t157 76q80 0 123 -68z" />
    <glyph glyph-name="A" unicode="A" horiz-adv-x="834" 
d="M529 277l-112 283l-112 -283h224zM639 0l-58 147h-328l-58 -147h-209l314 714h234l314 -714h-209z" />
    <glyph glyph-name="B" unicode="B" horiz-adv-x="889" 
d="M262 306v-170h286q42 0 62.5 23.5t20.5 60.5q0 86 -103 86h-266zM68 0v714h536q87 0 144 -44t57 -136q0 -46 -24 -87t-71 -56v-2q59 -10 93 -60.5t34 -112.5q0 -40 -11 -74.5t-37.5 -68.5t-80.5 -53.5t-131 -19.5h-509zM262 584v-154h270q73 0 73 77q0 37 -22 57t-78 20
h-243z" />
    <glyph glyph-name="C" unicode="C" horiz-adv-x="907" 
d="M880 444h-209q-13 75 -69 114.5t-135 39.5q-65 0 -111.5 -23t-69.5 -62t-32.5 -77t-9.5 -79t9.5 -79t32.5 -77t69.5 -62t111.5 -23q77 0 134 39t70 119h211q-17 -150 -130 -222t-292 -72q-202 0 -312 92t-110 285t110 285t312 92q386 0 420 -290z" />
    <glyph glyph-name="D" unicode="D" horiz-adv-x="907" 
d="M262 578v-442h216q186 0 186 228q0 214 -204 214h-198zM68 0v714h445q178 0 264.5 -94.5t86.5 -262.5q0 -166 -85 -261.5t-249 -95.5h-462z" />
    <glyph glyph-name="E" unicode="E" 
d="M68 0v714h667v-136h-473v-148h449v-130h-449v-164h477v-136h-671z" />
    <glyph glyph-name="F" unicode="F" horiz-adv-x="722" 
d="M68 0v714h638v-136h-444v-156h416v-136h-416v-286h-194z" />
    <glyph glyph-name="G" unicode="G" horiz-adv-x="944" 
d="M520 274v124h364v-398h-98l-26 83q-96 -103 -300 -103q-202 0 -312 92t-110 285q0 169 112 273t310 104q79 0 145 -12.5t125 -40.5t98 -79t52 -122h-216q-20 63 -70.5 90.5t-111.5 27.5q-63 0 -111 -21.5t-74.5 -57.5t-39.5 -77t-13 -85t13 -85t39.5 -77t74.5 -57.5
t111 -21.5q180 0 211 158h-173z" />
    <glyph glyph-name="H" unicode="H" horiz-adv-x="926" 
d="M68 0v714h194v-268h402v268h194v-714h-194v310h-402v-310h-194z" />
    <glyph glyph-name="I" unicode="I" horiz-adv-x="330" 
d="M68 0v714h194v-714h-194z" />
    <glyph glyph-name="J" unicode="J" horiz-adv-x="685" 
d="M423 254v460h194v-436q0 -34 -1 -56t-7 -56.5t-16.5 -57t-32 -49t-51 -42.5t-75.5 -26.5t-105 -10.5q-54 0 -97.5 6t-86.5 22.5t-71.5 43t-46.5 71t-18 103.5v45h194v-50q0 -51 28.5 -81t76.5 -30q70 0 92.5 36t22.5 108z" />
    <glyph glyph-name="K" unicode="K" horiz-adv-x="870" 
d="M262 407l332 307h261l-328 -287l353 -427h-262l-243 309l-113 -97v-212h-194v714h194v-307z" />
    <glyph glyph-name="L" unicode="L" horiz-adv-x="722" 
d="M68 0v714h194v-572h435v-142h-629z" />
    <glyph glyph-name="M" unicode="M" horiz-adv-x="1130" 
d="M565 200l212 514h285v-714h-188v572h-2l-226 -572h-162l-226 572h-2v-572h-188v714h285z" />
    <glyph glyph-name="N" unicode="N" horiz-adv-x="926" 
d="M670 216v498h188v-714h-211l-389 498h-2v-498h-188v714h225l375 -498h2z" />
    <glyph glyph-name="O" unicode="O" horiz-adv-x="944" 
d="M28 357q0 51 9 97t37.5 99.5t75 91.5t129.5 63.5t193 25.5t193 -25.5t129.5 -63.5t75 -91.5t37.5 -99.5t9 -97t-9 -97t-37.5 -99.5t-75 -91.5t-129.5 -63.5t-193 -25.5t-193 25.5t-129.5 63.5t-75 91.5t-37.5 99.5t-9 97zM234 357q0 -44 13 -85t39.5 -77t74.5 -57.5
t111 -21.5t111 21.5t74.5 57.5t39.5 77t13 85t-13 85t-39.5 77t-74.5 57.5t-111 21.5t-111 -21.5t-74.5 -57.5t-39.5 -77t-13 -85z" />
    <glyph glyph-name="P" unicode="P" horiz-adv-x="833" 
d="M262 584v-199h208q23 0 37 1t34 6t31 15t19.5 29t8.5 47q0 33 -9 54.5t-27 31t-34.5 12.5t-41.5 3h-226zM68 0v714h480q72 0 124 -20t78.5 -53.5t38 -68.5t11.5 -75q0 -116 -60.5 -179t-176.5 -63h-301v-255h-194z" />
    <glyph glyph-name="Q" unicode="Q" horiz-adv-x="944" 
d="M543 125l-57 50l89 98l84 -74q51 63 51 158q0 44 -13 85t-39.5 77t-74.5 57.5t-111 21.5t-111 -21.5t-74.5 -57.5t-39.5 -77t-13 -85t13 -85t39.5 -77t74.5 -57.5t111 -21.5q38 0 71 9zM811 -111l-136 120q-84 -29 -203 -29q-110 0 -193 25.5t-129.5 63.5t-75 91.5
t-37.5 99.5t-9 97t9 97t37.5 99.5t75 91.5t129.5 63.5t193 25.5t193 -25.5t129.5 -63.5t75 -91.5t37.5 -99.5t9 -97q0 -185 -116 -282l100 -88z" />
    <glyph glyph-name="R" unicode="R" horiz-adv-x="852" 
d="M262 578v-180h257q37 0 65 22.5t28 68.5q0 48 -30 68.5t-73 20.5h-247zM68 0v714h519q57 0 100 -13.5t67 -33.5t39.5 -47.5t20 -51t4.5 -48.5q0 -130 -116 -172v-2q98 -15 98 -191q0 -116 37 -155h-212q-13 23 -16 49.5t-3 87.5q0 70 -26.5 97.5t-76.5 27.5h-241v-262
h-194z" />
    <glyph glyph-name="S" unicode="S" horiz-adv-x="815" 
d="M766 507h-215q-4 33 -21 55t-44.5 31.5t-53 13t-60.5 3.5q-59 0 -95.5 -23.5t-36.5 -60.5q0 -54 82 -67l243 -39q108 -18 168.5 -63.5t60.5 -136.5q0 -110 -86.5 -175t-284.5 -65q-50 0 -90.5 3t-90 11t-86 25t-68.5 43t-49.5 67.5t-17.5 95.5h218q2 -115 184 -115
q71 0 112 22t41 67q0 39 -28.5 55.5t-92.5 26.5l-177 27q-53 8 -91.5 19.5t-76 33.5t-57 59.5t-19.5 89.5q0 224 354 224q363 0 378 -227z" />
    <glyph glyph-name="T" unicode="T" horiz-adv-x="722" 
d="M264 0v578h-265v136h724v-136h-265v-578h-194z" />
    <glyph glyph-name="U" unicode="U" horiz-adv-x="870" 
d="M60 256v458h194v-410q0 -29 1.5 -47.5t11 -48t27.5 -47.5t54 -31.5t87 -13.5t87 13.5t54 31.5t27.5 47.5t11 48t1.5 47.5v410h194v-458q0 -23 -1.5 -41t-9.5 -48.5t-21.5 -53.5t-41.5 -49.5t-66.5 -43.5t-99 -28.5t-135.5 -11.5t-135.5 11.5t-99 28.5t-66.5 43.5
t-41.5 49.5t-21.5 53.5t-9.5 48.5t-1.5 41z" />
    <glyph glyph-name="V" unicode="V" horiz-adv-x="796" 
d="M295 0l-317 714h213l207 -544l207 544h213l-317 -714h-206z" />
    <glyph glyph-name="W" unicode="W" horiz-adv-x="1148" 
d="M223 0l-226 714h194l138 -520h2l146 520h194l146 -520h2l138 520h194l-226 -714h-200l-150 508h-2l-150 -508h-200z" />
    <glyph glyph-name="X" unicode="X" horiz-adv-x="796" 
d="M-17 0l303 368l-278 346h233l157 -222l157 222h233l-278 -346l303 -368h-241l-174 241l-174 -241h-241z" />
    <glyph glyph-name="Y" unicode="Y" 
d="M292 0v249l-316 465h228l185 -311l185 311h228l-316 -465v-249h-194z" />
    <glyph glyph-name="Z" unicode="Z" horiz-adv-x="759" 
d="M16 0v124l472 454h-440v136h695v-124l-472 -454h472v-136h-727z" />
    <glyph glyph-name="bracketleft" unicode="[" horiz-adv-x="444" 
d="M81 -190v904h330v-124h-160v-656h160v-124h-330z" />
    <glyph glyph-name="backslash" unicode="\" horiz-adv-x="426" 
d="M293 -20l-295 754h134l296 -754h-135z" />
    <glyph glyph-name="bracketright" unicode="]" horiz-adv-x="444" 
d="M363 714v-904h-330v124h160v656h-160v124h330z" />
    <glyph glyph-name="asciicircum" unicode="^" horiz-adv-x="600" 
d="M180 309h-124l187 385h114l187 -385h-124l-120 249z" />
    <glyph glyph-name="underscore" unicode="_" horiz-adv-x="500" 
d="M0 -125v50h500v-50h-500z" />
    <glyph glyph-name="grave" unicode="`" horiz-adv-x="260" 
d="M77 603l-144 142h215l89 -142h-160z" />
    <glyph glyph-name="a" unicode="a" horiz-adv-x="741" 
d="M515 217v44q-35 -17 -104 -23l-102 -9q-48 -4 -70.5 -19.5t-22.5 -50.5t30.5 -55t80.5 -20q74 0 131 35t57 98zM232 372h-170q6 48 28 82.5t50.5 53.5t71.5 30.5t80.5 14.5t86.5 3q91 0 153.5 -14t94.5 -40t45 -56.5t13 -71.5v-266q0 -63 20 -108h-176q-11 34 -12 57
q-41 -41 -110.5 -59t-140.5 -18q-111 0 -174.5 42t-63.5 132q0 38 13 66.5t33.5 46t51.5 29t59.5 16.5t64.5 7l187 13q42 3 57 14t15 42q0 33 -31.5 48.5t-106.5 15.5q-63 0 -92.5 -14t-46.5 -66z" />
    <glyph glyph-name="b" unicode="b" 
d="M230 265q0 -73 47.5 -114t117.5 -41q71 0 118.5 41t47.5 114t-47.5 114t-118.5 41q-70 0 -117.5 -41t-47.5 -114zM60 0v726h176v-256h2q57 80 206 80q129 0 214 -79.5t85 -208.5q0 -136 -87 -209t-224 -73q-61 0 -107 18t-93 69h-2v-67h-170z" />
    <glyph glyph-name="c" unicode="c" horiz-adv-x="741" 
d="M717 338h-182q-28 94 -146 94q-82 0 -127 -42.5t-45 -121.5t45 -121.5t127 -42.5q59 0 99 29.5t47 79.5h182q-12 -69 -42 -116t-77 -72t-100 -35t-124 -10q-158 0 -248.5 71t-90.5 217t94 217t260 71q56 0 105 -9.5t97 -32.5t81 -68t45 -108z" />
    <glyph glyph-name="d" unicode="d" 
d="M217 265q0 -73 47.5 -114t118.5 -41q70 0 117.5 41t47.5 114t-47.5 114t-117.5 41q-71 0 -118.5 -41t-47.5 -114zM548 0v67h-2q-72 -87 -212 -87q-131 0 -215 73.5t-84 208.5q0 129 85 208.5t214 79.5q149 0 206 -80h2v256h176v-726h-170z" />
    <glyph glyph-name="e" unicode="e" horiz-adv-x="758" 
d="M530 160h188q-72 -180 -334 -180q-166 0 -260 71t-94 217t94 217t260 71q171 0 257.5 -82.5t86.5 -236.5v-16h-516v-2q0 -46 45 -87.5t127 -41.5q108 0 146 70zM212 325h334v2q0 13 -8.5 31t-25.5 39t-52 35t-80 14q-39 0 -70.5 -11t-49 -27t-29 -34t-15.5 -29.5
t-4 -17.5v-2z" />
    <glyph glyph-name="f" unicode="f" horiz-adv-x="426" 
d="M117 0v418h-111v118h111v27q0 106 41.5 138.5t166.5 32.5q25 0 111 -2v-110q-60 2 -89 2q-27 0 -40.5 -10.5t-13.5 -44.5v-33h141v-118h-141v-418h-176z" />
    <glyph glyph-name="g" unicode="g" 
d="M217 279q0 -147 168 -147q169 0 169 147t-169 147q-168 0 -168 -147zM560 471v65h170v-493q0 -135 -85.5 -195.5t-258.5 -60.5q-60 0 -106 5.5t-99 22t-85.5 54.5t-38.5 95h188q9 -35 41.5 -51t105.5 -16q76 0 119 32t43 121v43q-71 -79 -214 -79q-149 0 -227 78t-78 190
q0 118 80 193t239 75q140 0 204 -79h2z" />
    <glyph glyph-name="h" unicode="h" horiz-adv-x="741" 
d="M60 0v726h176v-268h2q21 36 80.5 64t132.5 28q30 0 59 -4.5t61 -18t55.5 -34t39 -56t15.5 -80.5v-357h-176v304q0 110 -118 110q-67 0 -109 -37.5t-42 -117.5v-259h-176z" />
    <glyph glyph-name="i" unicode="i" horiz-adv-x="296" 
d="M60 0v536h176v-536h-176zM60 602v124h176v-124h-176z" />
    <glyph glyph-name="j" unicode="j" horiz-adv-x="296" 
d="M60 18v518h176v-532q0 -43 -3 -71t-14.5 -55.5t-32.5 -42.5t-57 -24.5t-88 -9.5q-20 0 -51.5 2t-38.5 2v130q36 -4 45 -4q40 0 52 17.5t12 69.5zM60 602v124h176v-124h-176z" />
    <glyph glyph-name="k" unicode="k" horiz-adv-x="722" 
d="M60 0v726h176v-390l233 200h245l-255 -204l271 -332h-233l-175 223l-86 -69v-154h-176z" />
    <glyph glyph-name="l" unicode="l" horiz-adv-x="296" 
d="M60 0v726h176v-726h-176z" />
    <glyph glyph-name="m" unicode="m" horiz-adv-x="1130" 
d="M894 0v322q0 49 -31.5 70.5t-76.5 21.5q-58 0 -95.5 -32t-37.5 -92v-290h-176v322q0 49 -31 70.5t-75 21.5q-59 0 -97 -32t-38 -92v-290h-176v536h170v-78h2q26 37 86 64.5t133 27.5q140 0 185 -101q77 101 221 101q92 0 152.5 -44.5t60.5 -142.5v-363h-176z" />
    <glyph glyph-name="n" unicode="n" horiz-adv-x="741" 
d="M505 0v304q0 110 -118 110q-67 0 -109 -37.5t-42 -117.5v-259h-176v536h170v-78h2q26 37 86 64.5t133 27.5q30 0 59 -4.5t61 -18t55.5 -34t39 -56t15.5 -80.5v-357h-176z" />
    <glyph glyph-name="o" unicode="o" 
d="M35 268q0 146 94 217t260 71t260 -71t94 -217t-94 -217t-260 -71t-260 71t-94 217zM217 268q0 -79 45 -121.5t127 -42.5t127 42.5t45 121.5t-45 121.5t-127 42.5t-127 -42.5t-45 -121.5z" />
    <glyph glyph-name="p" unicode="p" 
d="M230 265q0 -73 47.5 -114t117.5 -41q71 0 118.5 41t47.5 114t-47.5 114t-118.5 41q-70 0 -117.5 -41t-47.5 -114zM60 -199v735h170v-73h2q47 51 93 69t107 18q137 0 224 -73t87 -209q0 -129 -85 -208.5t-214 -79.5q-149 0 -206 80h-2v-259h-176z" />
    <glyph glyph-name="q" unicode="q" 
d="M217 265q0 -73 47.5 -114t118.5 -41q70 0 117.5 41t47.5 114t-47.5 114t-117.5 41q-71 0 -118.5 -41t-47.5 -114zM548 463v73h170v-735h-176v259h-2q-57 -80 -206 -80q-129 0 -214 79.5t-85 208.5q0 136 87 209t224 73q61 0 107 -18t93 -69h2z" />
    <glyph glyph-name="r" unicode="r" horiz-adv-x="519" 
d="M60 0v536h170v-105h2q51 65 96.5 92t117.5 27q39 0 64 -5v-165q-57 16 -97 16q-88 0 -132.5 -43t-44.5 -122v-231h-176z" />
    <glyph glyph-name="s" unicode="s" horiz-adv-x="704" 
d="M29 166h194q13 -76 131 -76q127 0 127 58q0 23 -19 34t-81 20l-160 22q-90 12 -133 45.5t-43 106.5q0 180 293 180q89 0 151 -13.5t96 -40t49.5 -56.5t20.5 -71h-194q-13 71 -119 71q-115 0 -115 -57q0 -21 18 -32.5t71 -17.5l122 -13q130 -14 183.5 -53.5t53.5 -111.5
q0 -46 -20.5 -80t-51.5 -53t-77 -30t-88 -14.5t-94 -3.5q-153 0 -230.5 45.5t-84.5 140.5z" />
    <glyph glyph-name="t" unicode="t" horiz-adv-x="444" 
d="M117 536v166h176v-166h142v-118h-142v-250q0 -32 12.5 -44t46.5 -12q30 0 86 4v-118q-82 -10 -138 -10q-61 0 -99 10.5t-55.5 33.5t-23 48t-5.5 67v271h-111v118h111z" />
    <glyph glyph-name="u" unicode="u" horiz-adv-x="741" 
d="M511 0v72h-2q-26 -37 -86 -64.5t-133 -27.5q-30 0 -59 4.5t-61 18t-55.5 34t-39 56t-15.5 80.5v363h176v-310q0 -110 120 -110q72 0 110.5 39t38.5 113v268h176v-536h-170z" />
    <glyph glyph-name="v" unicode="v" horiz-adv-x="668" 
d="M234 0l-246 536h200l146 -376l146 376h200l-246 -536h-200z" />
    <glyph glyph-name="w" unicode="w" horiz-adv-x="1056" 
d="M200 0l-200 536h194l123 -366h2l124 366h170l124 -366h2l123 366h194l-200 -536h-211l-116 346h-2l-116 -346h-211z" />
    <glyph glyph-name="x" unicode="x" horiz-adv-x="722" 
d="M360 372l127 164h219l-227 -258l246 -278h-229l-138 177l-136 -177h-225l244 278l-225 258h221z" />
    <glyph glyph-name="y" unicode="y" horiz-adv-x="648" 
d="M476 536h188l-293 -624q-31 -66 -71.5 -88.5t-116.5 -22.5q-42 0 -124 4v124q50 -4 76 -4q31 0 49 13t34 42l18 39l-252 517h191l153 -354z" />
    <glyph glyph-name="z" unicode="z" horiz-adv-x="648" 
d="M26 0v110l339 296h-320v130h565v-110l-339 -296h351v-130h-596z" />
    <glyph glyph-name="braceleft" unicode="{" horiz-adv-x="444" 
d="M301 531v-157q0 -45 -27 -75t-72 -36v-2q99 -13 99 -118v-150q0 -73 54 -73h40v-110h-121q-67 0 -105 34t-38 101v184q0 38 -27 64t-66 26v86q37 0 65 23.5t28 59.5v191q0 65 37 100t106 35h121v-110h-40q-54 0 -54 -73z" />
    <glyph glyph-name="bar" unicode="|" horiz-adv-x="222" 
d="M49 -20v754h124v-754h-124z" />
    <glyph glyph-name="braceright" unicode="}" horiz-adv-x="444" 
d="M143 -7v157q0 45 27 75t72 36v2q-99 13 -99 118v150q0 73 -54 73h-40v110h121q67 0 105 -34t38 -101v-184q0 -38 27 -64t66 -26v-86q-37 0 -65 -23.5t-28 -59.5v-191q0 -65 -37 -100t-106 -35h-121v110h40q54 0 54 73z" />
    <glyph glyph-name="asciitilde" unicode="~" horiz-adv-x="600" 
d="M495 349l36 -106q-46 -86 -123 -86q-52 0 -118 34t-95 34q-27 0 -53.5 -23t-36.5 -45l-36 106q46 86 123 86q52 0 118 -34t95 -34q27 0 53.5 23t36.5 45z" />
    <glyph glyph-name="uni00A0" unicode="&#xa0;" horiz-adv-x="370" 
 />
    <glyph glyph-name="exclamdown" unicode="&#xa1;" horiz-adv-x="370" 
d="M88 -178l30 483h134l30 -483h-194zM88 366v170h194v-170h-194z" />
    <glyph glyph-name="cent" unicode="&#xa2;" horiz-adv-x="816" 
d="M382 104v328q-64 -10 -98.5 -52.5t-34.5 -111.5t34.5 -112t98.5 -52zM382 -126v106q-148 8 -231.5 79.5t-83.5 208.5t83.5 208.5t231.5 79.5v85h62v-85q266 -10 305 -218h-182q-25 86 -123 94v-328q51 7 84 36t39 73h182q-11 -65 -38.5 -111t-69.5 -71.5t-89.5 -37
t-107.5 -13.5v-106h-62z" />
    <glyph glyph-name="sterling" unicode="&#xa3;" horiz-adv-x="816" 
d="M61 304v92h57q-26 55 -26 97q0 221 338 221q91 0 156.5 -21.5t99 -56.5t48 -71t14.5 -74v-28h-200q-4 115 -123 115q-66 0 -99.5 -29t-33.5 -71q0 -25 20 -82h178v-92h-164q2 -16 2 -27q0 -81 -79 -142v-2q58 23 105 23q26 1 91.5 -11.5t106.5 -10.5q44 0 89 14.5
t71 36.5l52 -138q-88 -67 -212 -67q-46 0 -136 20t-147 20q-78 0 -144 -40l-73 127q48 30 74 62t26 80q0 21 -8 55h-83z" />
    <glyph glyph-name="currency" unicode="&#xa4;" horiz-adv-x="816" 
d="M408 494q-61 0 -101 -41.5t-40 -105.5t40 -105.5t101 -41.5t101 41.5t40 105.5t-40 105.5t-101 41.5zM130 140l58 58q-45 66 -45 149q0 82 45 149l-58 58l71 71l58 -58q67 45 149 45t149 -45l58 58l71 -71l-58 -58q45 -67 45 -149q0 -84 -46 -148l59 -59l-71 -71l-59 59
q-64 -46 -148 -46t-148 46l-59 -59z" />
    <glyph glyph-name="yen" unicode="&#xa5;" horiz-adv-x="816" 
d="M308 0v126h-200v92h200v41l-27 39h-173v92h110l-208 304h225l172 -290h2l176 290h221l-213 -304h109v-92h-173l-27 -39v-41h200v-92h-200v-126h-194z" />
    <glyph glyph-name="brokenbar" unicode="&#xa6;" horiz-adv-x="222" 
d="M49 -20v275h124v-275h-124zM49 459v275h124v-275h-124z" />
    <glyph glyph-name="section" unicode="&#xa7;" horiz-adv-x="816" 
d="M82 12h188q3 -29 17.5 -48.5t38 -29t46.5 -12.5t53 -3q57 0 87 17t30 44q0 23 -13 35.5t-56 27t-142 37.5q-150 34 -222 84.5t-72 138.5q0 55 27 96t77 57q-40 32 -40 95q0 50 24.5 87t66 57t87.5 29.5t97 9.5q50 0 90.5 -4t85 -16.5t76 -34t54.5 -59t28 -88.5h-188
q-1 18 -5 29.5t-16 25.5t-40.5 21.5t-72.5 7.5q-52 0 -78.5 -18t-26.5 -47q0 -25 17.5 -36t66.5 -23l201 -52q102 -26 156.5 -74.5t54.5 -111.5q0 -57 -25 -99t-72 -58q26 -22 37 -45.5t11 -59.5q0 -85 -83 -138t-234 -53q-93 0 -162 19t-116 67.5t-53 124.5zM518 303
l-275 83q-42 -29 -42 -66q0 -9 2.5 -16.5t5.5 -14t9.5 -12.5t11 -10t14.5 -8.5t14.5 -7t16.5 -6.5t16 -5t16.5 -4.5t14.5 -4.5l257 -75q36 34 36 67q0 18 -8 31.5t-25.5 23t-29.5 14t-34 11.5z" />
    <glyph glyph-name="dieresis" unicode="&#xa8;" horiz-adv-x="260" 
d="M-101 603v118h176v-118h-176zM185 603v118h176v-118h-176z" />
    <glyph glyph-name="copyright" unicode="&#xa9;" horiz-adv-x="800" 
d="M495 297h104q-11 -74 -63.5 -116.5t-120.5 -42.5q-97 0 -155 63t-58 159q0 98 56 160t154 62q70 0 121 -41t61 -115h-98q-17 64 -89 64q-50 0 -78.5 -36.5t-28.5 -93.5q0 -54 30 -92t76 -38q36 0 60.5 18.5t28.5 48.5zM23 357q0 156 110.5 266.5t266.5 110.5
t266.5 -110.5t110.5 -266.5t-110.5 -266.5t-266.5 -110.5t-266.5 110.5t-110.5 266.5zM133 357q0 -127 73.5 -203t193.5 -76t193.5 76t73.5 203t-73.5 203t-193.5 76t-193.5 -76t-73.5 -203z" />
    <glyph glyph-name="ordfeminine" unicode="&#xaa;" horiz-adv-x="482" 
d="M324 514v22q-24 -13 -73 -17l-51 -5q-55 -6 -55 -34q0 -16 19 -27t47 -11q41 0 77 19.5t36 52.5zM448 609v-186q0 -22 13 -43h-118q-10 16 -10 40h-2q-41 -52 -155 -52q-155 0 -155 103q0 52 39 72t105 25l122 9q23 2 33 7.5t10 20.5q0 35 -86 35q-36 0 -54.5 -7.5
t-30.5 -32.5h-118q5 37 24.5 61.5t52 35t61.5 14t70 3.5q78 0 124 -15.5t60.5 -37t14.5 -52.5z" />
    <glyph glyph-name="guillemotleft" unicode="&#xab;" horiz-adv-x="611" 
d="M324 207v158l194 142v-133l-120 -88l120 -88v-133zM83 207v158l194 142v-133l-120 -88l120 -88v-133z" />
    <glyph glyph-name="logicalnot" unicode="&#xac;" horiz-adv-x="600" 
d="M429 98v202h-382v124h506v-326h-124z" />
    <glyph glyph-name="uni00AD" unicode="&#xad;" horiz-adv-x="481" 
d="M62 218v136h357v-136h-357z" />
    <glyph glyph-name="registered" unicode="&#xae;" horiz-adv-x="800" 
d="M250 150v413h161q159 0 159 -129q0 -51 -29 -81t-76 -35l103 -168h-98l-93 164h-35v-164h-92zM342 489v-101h68q34 0 51 10t17 41q0 50 -77 50h-59zM133 357q0 -127 73.5 -203t193.5 -76t193.5 76t73.5 203t-73.5 203t-193.5 76t-193.5 -76t-73.5 -203zM23 357
q0 156 110.5 266.5t266.5 110.5t266.5 -110.5t110.5 -266.5t-110.5 -266.5t-266.5 -110.5t-266.5 110.5t-110.5 266.5z" />
    <glyph glyph-name="macron" unicode="&#xaf;" horiz-adv-x="260" 
d="M-111 624v104h482v-104h-482z" />
    <glyph glyph-name="degree" unicode="&#xb0;" horiz-adv-x="400" 
d="M52 566q0 62 43 105t105 43t105 -43t43 -105t-43 -105t-105 -43t-105 43t-43 105zM126 566q0 -31 21.5 -52.5t52.5 -21.5t52.5 21.5t21.5 52.5t-21.5 52.5t-52.5 21.5t-52.5 -21.5t-21.5 -52.5z" />
    <glyph glyph-name="plusminus" unicode="&#xb1;" horiz-adv-x="600" 
d="M238 398v108h124v-108h191v-124h-191v-108h-124v108h-191v124h191zM47 0v124h506v-124h-506z" />
    <glyph glyph-name="twosuperior" unicode="&#xb2;" horiz-adv-x="530" 
d="M505 286h-480q3 59 29 101t63 62.5t79 36t78 24t59.5 23.5t23.5 37q0 25 -21.5 41.5t-55.5 16.5q-33 0 -61 -19t-33 -59h-148q8 164 243 164q115 0 169.5 -39.5t54.5 -92.5q0 -52 -41 -84.5t-123 -52.5q-123 -30 -154 -61h318v-98z" />
    <glyph glyph-name="threesuperior" unicode="&#xb3;" horiz-adv-x="530" 
d="M195 462v86h85q58 0 58 38q0 19 -21 30.5t-57 11.5q-27 0 -51 -12.5t-31 -32.5h-139q16 131 236 131q211 0 211 -121q0 -66 -73 -81v-2q42 -7 67 -33.5t25 -62.5q0 -140 -250 -140q-223 0 -230 147h142q1 -32 30.5 -46.5t68.5 -14.5q40 0 65.5 15t25.5 38q0 49 -84 49
h-78z" />
    <glyph glyph-name="acute" unicode="&#xb4;" horiz-adv-x="260" 
d="M23 603l89 142h215l-144 -142h-160z" />
    <glyph glyph-name="mu" unicode="&#xb5;" horiz-adv-x="741" 
d="M681 536v-536h-170v72h-2q-28 -48 -80 -70t-97 -22q-62 0 -96 29v-208h-176v735h176v-310q0 -110 120 -110q72 0 110.5 39t38.5 113v268h176z" />
    <glyph glyph-name="paragraph" unicode="&#xb6;" horiz-adv-x="620" 
d="M230 -179v496q-112 0 -170.5 50t-58.5 145q0 113 64 157.5t186 44.5h331v-893h-130v795h-92v-795h-130z" />
    <glyph glyph-name="periodcentered" unicode="&#xb7;" horiz-adv-x="370" 
d="M82 275q0 42 31 72.5t72 30.5t72 -30.5t31 -72.5t-31 -72.5t-72 -30.5t-72 30.5t-31 72.5z" />
    <glyph glyph-name="cedilla" unicode="&#xb8;" horiz-adv-x="260" 
d="M39 -83l54 83h63l-30 -47q20 4 44 4q39 0 67 -20.5t28 -59.5q0 -26 -13.5 -45t-36.5 -28t-45.5 -13t-46.5 -4q-83 0 -128 14l17 52q35 -10 81 -10q48 0 48 34q0 31 -35 31q-20 0 -47 -9z" />
    <glyph glyph-name="onesuperior" unicode="&#xb9;" horiz-adv-x="361" 
d="M152 286v252h-134v92q78 2 109.5 14.5t50.5 57.5h110v-416h-136z" />
    <glyph glyph-name="ordmasculine" unicode="&#xba;" horiz-adv-x="506" 
d="M23 541q0 88 61 130.5t169 42.5t169 -42.5t61 -130.5t-61 -130.5t-169 -42.5t-169 42.5t-61 130.5zM147 542q0 -43 28.5 -68.5t77.5 -25.5t77.5 25.5t28.5 68.5t-28.5 67.5t-77.5 24.5t-77.5 -24.5t-28.5 -67.5z" />
    <glyph glyph-name="guillemotright" unicode="&#xbb;" horiz-adv-x="611" 
d="M93 65v133l120 88l-120 88v133l194 -142v-158zM334 65v133l120 88l-120 88v133l194 -142v-158z" />
    <glyph glyph-name="onequarter" unicode="&#xbc;" horiz-adv-x="1222" 
d="M932 167v163l-147 -163h147zM932 0v81h-277v82l252 253h149v-249h82v-86h-82v-81h-124zM288 -20l362 734h95l-362 -734h-95zM190 286v252h-134v92q78 2 109.5 14.5t50.5 57.5h110v-416h-136z" />
    <glyph glyph-name="onehalf" unicode="&#xbd;" horiz-adv-x="1222" 
d="M288 -20l362 734h95l-362 -734h-95zM1138 0h-480q3 59 29 101t63 62.5t79 36t78 24t59.5 23.5t23.5 37q0 25 -21.5 41.5t-55.5 16.5q-33 0 -61 -19t-33 -59h-148q8 164 243 164q115 0 169.5 -39.5t54.5 -92.5q0 -52 -41 -84.5t-123 -52.5q-123 -30 -154 -61h318v-98z
M190 286v252h-134v92q78 2 109.5 14.5t50.5 57.5h110v-416h-136z" />
    <glyph glyph-name="threequarters" unicode="&#xbe;" horiz-adv-x="1222" 
d="M403 -20l362 734h95l-362 -734h-95zM226 462v86h85q58 0 58 38q0 19 -21 30.5t-57 11.5q-27 0 -51 -12.5t-31 -32.5h-139q16 131 236 131q211 0 211 -121q0 -66 -73 -81v-2q42 -7 67 -33.5t25 -62.5q0 -140 -250 -140q-223 0 -230 147h142q1 -32 30.5 -46.5t68.5 -14.5
q40 0 65.5 15t25.5 38q0 49 -84 49h-78zM932 0v81h-277v82l252 253h149v-249h82v-86h-82v-81h-124zM785 167h147v163z" />
    <glyph glyph-name="questiondown" unicode="&#xbf;" horiz-adv-x="759" 
d="M300 306h176q0 -53 -24 -90t-58.5 -57.5t-69 -37.5t-58.5 -41t-24 -57q0 -40 38.5 -64.5t92.5 -24.5q63 0 103.5 31.5t46.5 96.5h188q-2 -67 -30 -117t-74.5 -78.5t-101 -42.5t-115.5 -14q-158 0 -250 55.5t-92 161.5q0 49 24.5 86t60 58.5t71.5 40t63.5 42t32.5 52.5z
M291 366v170h194v-170h-194z" />
    <glyph glyph-name="Agrave" unicode="&#xc0;" horiz-adv-x="834" 
d="M529 277l-112 283l-112 -283h224zM639 0l-58 147h-328l-58 -147h-209l314 714h234l314 -714h-209zM364 761l-144 142h215l89 -142h-160z" />
    <glyph glyph-name="Aacute" unicode="&#xc1;" horiz-adv-x="834" 
d="M529 277l-112 283l-112 -283h224zM639 0l-58 147h-328l-58 -147h-209l314 714h234l314 -714h-209zM310 761l89 142h215l-144 -142h-160z" />
    <glyph glyph-name="Acircumflex" unicode="&#xc2;" horiz-adv-x="834" 
d="M529 277l-112 283l-112 -283h224zM639 0l-58 147h-328l-58 -147h-209l314 714h234l314 -714h-209zM157 761l144 142h232l144 -142h-188l-79 81l-77 -81h-176z" />
    <glyph glyph-name="Atilde" unicode="&#xc3;" horiz-adv-x="834" 
d="M529 277l-112 283l-112 -283h224zM639 0l-58 147h-328l-58 -147h-209l314 714h234l314 -714h-209zM257 765h-86q40 138 143 138q25 0 106 -22t112 -22q43 0 49 39h82q-18 -137 -130 -137q-31 0 -120.5 25t-106.5 25q-34 0 -49 -46z" />
    <glyph glyph-name="Adieresis" unicode="&#xc4;" horiz-adv-x="834" 
d="M529 277l-112 283l-112 -283h224zM639 0l-58 147h-328l-58 -147h-209l314 714h234l314 -714h-209zM186 761v118h176v-118h-176zM472 761v118h176v-118h-176z" />
    <glyph glyph-name="Aring" unicode="&#xc5;" horiz-adv-x="834" 
d="M529 277l-112 283l-112 -283h224zM639 0l-58 147h-328l-58 -147h-209l314 714h234l314 -714h-209zM298 857q0 53 37 90t90 37t90 -37t37 -90t-37 -90t-90 -37t-90 37t-37 90zM360 857q0 -27 19 -46t46 -19t46 19t19 46t-19 46t-46 19t-46 -19t-19 -46z" />
    <glyph glyph-name="AE" unicode="&#xc6;" horiz-adv-x="1148" 
d="M480 584l-153 -294h200v294h-47zM-33 0l395 714h743v-136h-402v-148h388v-130h-388v-164h406v-136h-582v166h-259l-90 -166h-211z" />
    <glyph glyph-name="Ccedilla" unicode="&#xc7;" horiz-adv-x="907" 
d="M671 274h211q-17 -148 -128 -220t-287 -74l-17 -27q20 4 44 4q39 0 67 -20.5t28 -59.5q0 -26 -13.5 -45t-36.5 -28t-45.5 -13t-46.5 -4q-83 0 -128 14l17 52q35 -10 81 -10q48 0 48 34q0 31 -35 31q-20 0 -47 -9l-20 18l43 66q-177 11 -272.5 102.5t-95.5 271.5
q0 193 110 285t312 92q386 0 420 -290h-209q-13 75 -69 114.5t-135 39.5q-65 0 -111.5 -23t-69.5 -62t-32.5 -77t-9.5 -79t9.5 -79t32.5 -77t69.5 -62t111.5 -23q77 0 134 39t70 119z" />
    <glyph glyph-name="Egrave" unicode="&#xc8;" 
d="M68 0v714h667v-136h-473v-148h449v-130h-449v-164h477v-136h-671zM336 761l-144 142h215l89 -142h-160z" />
    <glyph glyph-name="Eacute" unicode="&#xc9;" 
d="M68 0v714h667v-136h-473v-148h449v-130h-449v-164h477v-136h-671zM282 761l89 142h215l-144 -142h-160z" />
    <glyph glyph-name="Ecircumflex" unicode="&#xca;" 
d="M68 0v714h667v-136h-473v-148h449v-130h-449v-164h477v-136h-671zM129 761l144 142h232l144 -142h-188l-79 81l-77 -81h-176z" />
    <glyph glyph-name="Edieresis" unicode="&#xcb;" 
d="M68 0v714h667v-136h-473v-148h449v-130h-449v-164h477v-136h-671zM158 761v118h176v-118h-176zM444 761v118h176v-118h-176z" />
    <glyph glyph-name="Igrave" unicode="&#xcc;" horiz-adv-x="330" 
d="M68 0v714h194v-714h-194zM112 761l-144 142h215l89 -142h-160z" />
    <glyph glyph-name="Iacute" unicode="&#xcd;" horiz-adv-x="330" 
d="M68 0v714h194v-714h-194zM58 761l89 142h215l-144 -142h-160z" />
    <glyph glyph-name="Icircumflex" unicode="&#xce;" horiz-adv-x="330" 
d="M68 0v714h194v-714h-194zM-95 761l144 142h232l144 -142h-188l-79 81l-77 -81h-176z" />
    <glyph glyph-name="Idieresis" unicode="&#xcf;" horiz-adv-x="330" 
d="M68 0v714h194v-714h-194zM-66 761v118h176v-118h-176zM220 761v118h176v-118h-176z" />
    <glyph glyph-name="Eth" unicode="&#xd0;" horiz-adv-x="907" 
d="M68 0v306h-68v124h68v284h445q178 0 264.5 -94.5t86.5 -262.5q0 -166 -85 -261.5t-249 -95.5h-462zM262 578v-148h166v-124h-166v-170h216q186 0 186 228q0 214 -204 214h-198z" />
    <glyph glyph-name="Ntilde" unicode="&#xd1;" horiz-adv-x="926" 
d="M670 216v498h188v-714h-211l-389 498h-2v-498h-188v714h225l375 -498h2zM303 765h-86q40 138 143 138q25 0 106 -22t112 -22q43 0 49 39h82q-18 -137 -130 -137q-31 0 -120.5 25t-106.5 25q-34 0 -49 -46z" />
    <glyph glyph-name="Ograve" unicode="&#xd2;" horiz-adv-x="944" 
d="M28 357q0 51 9 97t37.5 99.5t75 91.5t129.5 63.5t193 25.5t193 -25.5t129.5 -63.5t75 -91.5t37.5 -99.5t9 -97t-9 -97t-37.5 -99.5t-75 -91.5t-129.5 -63.5t-193 -25.5t-193 25.5t-129.5 63.5t-75 91.5t-37.5 99.5t-9 97zM234 357q0 -44 13 -85t39.5 -77t74.5 -57.5
t111 -21.5t111 21.5t74.5 57.5t39.5 77t13 85t-13 85t-39.5 77t-74.5 57.5t-111 21.5t-111 -21.5t-74.5 -57.5t-39.5 -77t-13 -85zM419 761l-144 142h215l89 -142h-160z" />
    <glyph glyph-name="Oacute" unicode="&#xd3;" horiz-adv-x="944" 
d="M28 357q0 51 9 97t37.5 99.5t75 91.5t129.5 63.5t193 25.5t193 -25.5t129.5 -63.5t75 -91.5t37.5 -99.5t9 -97t-9 -97t-37.5 -99.5t-75 -91.5t-129.5 -63.5t-193 -25.5t-193 25.5t-129.5 63.5t-75 91.5t-37.5 99.5t-9 97zM234 357q0 -44 13 -85t39.5 -77t74.5 -57.5
t111 -21.5t111 21.5t74.5 57.5t39.5 77t13 85t-13 85t-39.5 77t-74.5 57.5t-111 21.5t-111 -21.5t-74.5 -57.5t-39.5 -77t-13 -85zM365 761l89 142h215l-144 -142h-160z" />
    <glyph glyph-name="Ocircumflex" unicode="&#xd4;" horiz-adv-x="944" 
d="M28 357q0 51 9 97t37.5 99.5t75 91.5t129.5 63.5t193 25.5t193 -25.5t129.5 -63.5t75 -91.5t37.5 -99.5t9 -97t-9 -97t-37.5 -99.5t-75 -91.5t-129.5 -63.5t-193 -25.5t-193 25.5t-129.5 63.5t-75 91.5t-37.5 99.5t-9 97zM234 357q0 -44 13 -85t39.5 -77t74.5 -57.5
t111 -21.5t111 21.5t74.5 57.5t39.5 77t13 85t-13 85t-39.5 77t-74.5 57.5t-111 21.5t-111 -21.5t-74.5 -57.5t-39.5 -77t-13 -85zM212 761l144 142h232l144 -142h-188l-79 81l-77 -81h-176z" />
    <glyph glyph-name="Otilde" unicode="&#xd5;" horiz-adv-x="944" 
d="M28 357q0 51 9 97t37.5 99.5t75 91.5t129.5 63.5t193 25.5t193 -25.5t129.5 -63.5t75 -91.5t37.5 -99.5t9 -97t-9 -97t-37.5 -99.5t-75 -91.5t-129.5 -63.5t-193 -25.5t-193 25.5t-129.5 63.5t-75 91.5t-37.5 99.5t-9 97zM234 357q0 -44 13 -85t39.5 -77t74.5 -57.5
t111 -21.5t111 21.5t74.5 57.5t39.5 77t13 85t-13 85t-39.5 77t-74.5 57.5t-111 21.5t-111 -21.5t-74.5 -57.5t-39.5 -77t-13 -85zM312 765h-86q40 138 143 138q25 0 106 -22t112 -22q43 0 49 39h82q-18 -137 -130 -137q-31 0 -120.5 25t-106.5 25q-34 0 -49 -46z" />
    <glyph glyph-name="Odieresis" unicode="&#xd6;" horiz-adv-x="944" 
d="M28 357q0 51 9 97t37.5 99.5t75 91.5t129.5 63.5t193 25.5t193 -25.5t129.5 -63.5t75 -91.5t37.5 -99.5t9 -97t-9 -97t-37.5 -99.5t-75 -91.5t-129.5 -63.5t-193 -25.5t-193 25.5t-129.5 63.5t-75 91.5t-37.5 99.5t-9 97zM234 357q0 -44 13 -85t39.5 -77t74.5 -57.5
t111 -21.5t111 21.5t74.5 57.5t39.5 77t13 85t-13 85t-39.5 77t-74.5 57.5t-111 21.5t-111 -21.5t-74.5 -57.5t-39.5 -77t-13 -85zM241 761v118h176v-118h-176zM527 761v118h176v-118h-176z" />
    <glyph glyph-name="multiply" unicode="&#xd7;" horiz-adv-x="600" 
d="M59 98l156 155l-156 155l86 86l155 -156l155 156l86 -86l-156 -155l156 -155l-86 -86l-155 156l-155 -156z" />
    <glyph glyph-name="Oslash" unicode="&#xd8;" horiz-adv-x="944" 
d="M28 21l91 78q-91 96 -91 258q0 51 9 97t37.5 99.5t75 91.5t129.5 63.5t193 25.5q190 0 301 -75l100 86l43 -51l-92 -78q92 -94 92 -259q0 -51 -9 -97t-37.5 -99.5t-75 -91.5t-129.5 -63.5t-193 -25.5q-191 0 -301 75l-100 -85zM267 226l369 316q-63 56 -164 56
q-63 0 -111 -21.5t-74.5 -57.5t-39.5 -77t-13 -85q0 -74 33 -131zM677 489l-369 -316q62 -57 164 -57q63 0 111 21.5t74.5 57.5t39.5 77t13 85q0 73 -33 132z" />
    <glyph glyph-name="Ugrave" unicode="&#xd9;" horiz-adv-x="870" 
d="M60 256v458h194v-410q0 -29 1.5 -47.5t11 -48t27.5 -47.5t54 -31.5t87 -13.5t87 13.5t54 31.5t27.5 47.5t11 48t1.5 47.5v410h194v-458q0 -23 -1.5 -41t-9.5 -48.5t-21.5 -53.5t-41.5 -49.5t-66.5 -43.5t-99 -28.5t-135.5 -11.5t-135.5 11.5t-99 28.5t-66.5 43.5
t-41.5 49.5t-21.5 53.5t-9.5 48.5t-1.5 41zM382 761l-144 142h215l89 -142h-160z" />
    <glyph glyph-name="Uacute" unicode="&#xda;" horiz-adv-x="870" 
d="M60 256v458h194v-410q0 -29 1.5 -47.5t11 -48t27.5 -47.5t54 -31.5t87 -13.5t87 13.5t54 31.5t27.5 47.5t11 48t1.5 47.5v410h194v-458q0 -23 -1.5 -41t-9.5 -48.5t-21.5 -53.5t-41.5 -49.5t-66.5 -43.5t-99 -28.5t-135.5 -11.5t-135.5 11.5t-99 28.5t-66.5 43.5
t-41.5 49.5t-21.5 53.5t-9.5 48.5t-1.5 41zM328 761l89 142h215l-144 -142h-160z" />
    <glyph glyph-name="Ucircumflex" unicode="&#xdb;" horiz-adv-x="870" 
d="M60 256v458h194v-410q0 -29 1.5 -47.5t11 -48t27.5 -47.5t54 -31.5t87 -13.5t87 13.5t54 31.5t27.5 47.5t11 48t1.5 47.5v410h194v-458q0 -23 -1.5 -41t-9.5 -48.5t-21.5 -53.5t-41.5 -49.5t-66.5 -43.5t-99 -28.5t-135.5 -11.5t-135.5 11.5t-99 28.5t-66.5 43.5
t-41.5 49.5t-21.5 53.5t-9.5 48.5t-1.5 41zM175 761l144 142h232l144 -142h-188l-79 81l-77 -81h-176z" />
    <glyph glyph-name="Udieresis" unicode="&#xdc;" horiz-adv-x="870" 
d="M60 256v458h194v-410q0 -29 1.5 -47.5t11 -48t27.5 -47.5t54 -31.5t87 -13.5t87 13.5t54 31.5t27.5 47.5t11 48t1.5 47.5v410h194v-458q0 -23 -1.5 -41t-9.5 -48.5t-21.5 -53.5t-41.5 -49.5t-66.5 -43.5t-99 -28.5t-135.5 -11.5t-135.5 11.5t-99 28.5t-66.5 43.5
t-41.5 49.5t-21.5 53.5t-9.5 48.5t-1.5 41zM204 761v118h176v-118h-176zM490 761v118h176v-118h-176z" />
    <glyph glyph-name="Yacute" unicode="&#xdd;" 
d="M292 0v249l-316 465h228l185 -311l185 311h228l-316 -465v-249h-194zM282 761l89 142h215l-144 -142h-160z" />
    <glyph glyph-name="Thorn" unicode="&#xde;" horiz-adv-x="833" 
d="M262 456v-198h208q23 0 37 1t34 6t31 15t19.5 29t8.5 47q0 62 -30 81t-82 19h-226zM68 0v714h194v-128h301q67 0 115.5 -20t73.5 -54t36.5 -69t11.5 -73q0 -116 -60.5 -179t-176.5 -63h-301v-128h-194z" />
    <glyph glyph-name="germandbls" unicode="&#xdf;" horiz-adv-x="759" 
d="M60 0v489q0 135 80 190t242 55q143 0 224.5 -44.5t81.5 -152.5q0 -54 -31.5 -87t-67.5 -42v-2q140 -35 140 -185q0 -120 -81 -176.5t-217 -56.5q-52 0 -121 12v124q52 -6 93 -6q144 0 144 115q0 103 -144 103h-78v110h60q115 0 115 80q0 41 -33 62.5t-87 21.5
q-81 0 -112.5 -33.5t-31.5 -109.5v-467h-176z" />
    <glyph glyph-name="agrave" unicode="&#xe0;" horiz-adv-x="741" 
d="M515 217v44q-35 -17 -104 -23l-102 -9q-48 -4 -70.5 -19.5t-22.5 -50.5t30.5 -55t80.5 -20q74 0 131 35t57 98zM232 372h-170q6 48 28 82.5t50.5 53.5t71.5 30.5t80.5 14.5t86.5 3q91 0 153.5 -14t94.5 -40t45 -56.5t13 -71.5v-266q0 -63 20 -108h-176q-11 34 -12 57
q-41 -41 -110.5 -59t-140.5 -18q-111 0 -174.5 42t-63.5 132q0 38 13 66.5t33.5 46t51.5 29t59.5 16.5t64.5 7l187 13q42 3 57 14t15 42q0 33 -31.5 48.5t-106.5 15.5q-63 0 -92.5 -14t-46.5 -66zM318 603l-144 142h215l89 -142h-160z" />
    <glyph glyph-name="aacute" unicode="&#xe1;" horiz-adv-x="741" 
d="M515 217v44q-35 -17 -104 -23l-102 -9q-48 -4 -70.5 -19.5t-22.5 -50.5t30.5 -55t80.5 -20q74 0 131 35t57 98zM232 372h-170q6 48 28 82.5t50.5 53.5t71.5 30.5t80.5 14.5t86.5 3q91 0 153.5 -14t94.5 -40t45 -56.5t13 -71.5v-266q0 -63 20 -108h-176q-11 34 -12 57
q-41 -41 -110.5 -59t-140.5 -18q-111 0 -174.5 42t-63.5 132q0 38 13 66.5t33.5 46t51.5 29t59.5 16.5t64.5 7l187 13q42 3 57 14t15 42q0 33 -31.5 48.5t-106.5 15.5q-63 0 -92.5 -14t-46.5 -66zM264 603l89 142h215l-144 -142h-160z" />
    <glyph glyph-name="acircumflex" unicode="&#xe2;" horiz-adv-x="741" 
d="M515 217v44q-35 -17 -104 -23l-102 -9q-48 -4 -70.5 -19.5t-22.5 -50.5t30.5 -55t80.5 -20q74 0 131 35t57 98zM232 372h-170q6 48 28 82.5t50.5 53.5t71.5 30.5t80.5 14.5t86.5 3q91 0 153.5 -14t94.5 -40t45 -56.5t13 -71.5v-266q0 -63 20 -108h-176q-11 34 -12 57
q-41 -41 -110.5 -59t-140.5 -18q-111 0 -174.5 42t-63.5 132q0 38 13 66.5t33.5 46t51.5 29t59.5 16.5t64.5 7l187 13q42 3 57 14t15 42q0 33 -31.5 48.5t-106.5 15.5q-63 0 -92.5 -14t-46.5 -66zM111 603l144 142h232l144 -142h-188l-79 81l-77 -81h-176z" />
    <glyph glyph-name="atilde" unicode="&#xe3;" horiz-adv-x="741" 
d="M515 217v44q-35 -17 -104 -23l-102 -9q-48 -4 -70.5 -19.5t-22.5 -50.5t30.5 -55t80.5 -20q74 0 131 35t57 98zM232 372h-170q6 48 28 82.5t50.5 53.5t71.5 30.5t80.5 14.5t86.5 3q91 0 153.5 -14t94.5 -40t45 -56.5t13 -71.5v-266q0 -63 20 -108h-176q-11 34 -12 57
q-41 -41 -110.5 -59t-140.5 -18q-111 0 -174.5 42t-63.5 132q0 38 13 66.5t33.5 46t51.5 29t59.5 16.5t64.5 7l187 13q42 3 57 14t15 42q0 33 -31.5 48.5t-106.5 15.5q-63 0 -92.5 -14t-46.5 -66zM211 607h-86q40 138 143 138q25 0 106 -22t112 -22q43 0 49 39h82
q-18 -137 -130 -137q-31 0 -120.5 25t-106.5 25q-34 0 -49 -46z" />
    <glyph glyph-name="adieresis" unicode="&#xe4;" horiz-adv-x="741" 
d="M515 217v44q-35 -17 -104 -23l-102 -9q-48 -4 -70.5 -19.5t-22.5 -50.5t30.5 -55t80.5 -20q74 0 131 35t57 98zM232 372h-170q6 48 28 82.5t50.5 53.5t71.5 30.5t80.5 14.5t86.5 3q91 0 153.5 -14t94.5 -40t45 -56.5t13 -71.5v-266q0 -63 20 -108h-176q-11 34 -12 57
q-41 -41 -110.5 -59t-140.5 -18q-111 0 -174.5 42t-63.5 132q0 38 13 66.5t33.5 46t51.5 29t59.5 16.5t64.5 7l187 13q42 3 57 14t15 42q0 33 -31.5 48.5t-106.5 15.5q-63 0 -92.5 -14t-46.5 -66zM140 603v118h176v-118h-176zM426 603v118h176v-118h-176z" />
    <glyph glyph-name="aring" unicode="&#xe5;" horiz-adv-x="741" 
d="M515 217v44q-35 -17 -104 -23l-102 -9q-48 -4 -70.5 -19.5t-22.5 -50.5t30.5 -55t80.5 -20q74 0 131 35t57 98zM232 372h-170q6 48 28 82.5t50.5 53.5t71.5 30.5t80.5 14.5t86.5 3q91 0 153.5 -14t94.5 -40t45 -56.5t13 -71.5v-266q0 -63 20 -108h-176q-11 34 -12 57
q-41 -41 -110.5 -59t-140.5 -18q-111 0 -174.5 42t-63.5 132q0 38 13 66.5t33.5 46t51.5 29t59.5 16.5t64.5 7l187 13q42 3 57 14t15 42q0 33 -31.5 48.5t-106.5 15.5q-63 0 -92.5 -14t-46.5 -66zM252 709q0 53 37 90t90 37t90 -37t37 -90t-37 -90t-90 -37t-90 37t-37 90z
M314 709q0 -27 19 -46t46 -19t46 19t19 46t-19 46t-46 19t-46 -19t-19 -46z" />
    <glyph glyph-name="ae" unicode="&#xe6;" horiz-adv-x="1148" 
d="M493 226v26q-41 -13 -186 -25q-53 -4 -74 -20.5t-21 -49.5q0 -67 110 -67q78 0 124.5 35t46.5 101zM230 368h-170q14 99 89 143.5t215 44.5q147 0 226 -70q29 30 85.5 50t124.5 20q145 0 231.5 -83t86.5 -201q0 -34 -2 -51h-475q1 -64 45.5 -97.5t119.5 -33.5
q46 0 74.5 14t54.5 51h176q-42 -93 -117 -134t-184 -41q-96 0 -150.5 24.5t-98.5 69.5q-65 -53 -133 -73.5t-161 -20.5q-106 0 -171.5 41.5t-65.5 131.5q0 146 206 160l179 12q49 4 63.5 14t14.5 35q0 43 -34 57.5t-95 14.5q-67 0 -95 -16t-39 -62zM641 319h307
q-10 63 -50 95t-104 32q-131 0 -153 -127z" />
    <glyph glyph-name="ccedilla" unicode="&#xe7;" horiz-adv-x="741" 
d="M535 213h182q-22 -130 -106.5 -180.5t-226.5 -52.5l-17 -27q20 4 44 4q39 0 67 -20.5t28 -59.5q0 -26 -13.5 -45t-36.5 -28t-45.5 -13t-46.5 -4q-83 0 -128 14l17 52q35 -10 81 -10q48 0 48 34q0 31 -35 31q-20 0 -47 -9l-20 18l42 66q-136 10 -211.5 80.5t-75.5 204.5
q0 146 94 217t260 71q56 0 105 -9.5t97 -32.5t81 -68t45 -108h-182q-28 94 -146 94q-82 0 -127 -42.5t-45 -121.5t45 -121.5t127 -42.5q59 0 99 29.5t47 79.5z" />
    <glyph glyph-name="egrave" unicode="&#xe8;" horiz-adv-x="758" 
d="M530 160h188q-72 -180 -334 -180q-166 0 -260 71t-94 217t94 217t260 71q171 0 257.5 -82.5t86.5 -236.5v-16h-516v-2q0 -46 45 -87.5t127 -41.5q108 0 146 70zM212 325h334v2q0 13 -8.5 31t-25.5 39t-52 35t-80 14q-39 0 -70.5 -11t-49 -27t-29 -34t-15.5 -29.5
t-4 -17.5v-2zM326 603l-144 142h215l89 -142h-160z" />
    <glyph glyph-name="eacute" unicode="&#xe9;" horiz-adv-x="758" 
d="M530 160h188q-72 -180 -334 -180q-166 0 -260 71t-94 217t94 217t260 71q171 0 257.5 -82.5t86.5 -236.5v-16h-516v-2q0 -46 45 -87.5t127 -41.5q108 0 146 70zM212 325h334v2q0 13 -8.5 31t-25.5 39t-52 35t-80 14q-39 0 -70.5 -11t-49 -27t-29 -34t-15.5 -29.5
t-4 -17.5v-2zM272 603l89 142h215l-144 -142h-160z" />
    <glyph glyph-name="ecircumflex" unicode="&#xea;" horiz-adv-x="758" 
d="M530 160h188q-72 -180 -334 -180q-166 0 -260 71t-94 217t94 217t260 71q171 0 257.5 -82.5t86.5 -236.5v-16h-516v-2q0 -46 45 -87.5t127 -41.5q108 0 146 70zM212 325h334v2q0 13 -8.5 31t-25.5 39t-52 35t-80 14q-39 0 -70.5 -11t-49 -27t-29 -34t-15.5 -29.5
t-4 -17.5v-2zM119 603l144 142h232l144 -142h-188l-79 81l-77 -81h-176z" />
    <glyph glyph-name="edieresis" unicode="&#xeb;" horiz-adv-x="758" 
d="M530 160h188q-72 -180 -334 -180q-166 0 -260 71t-94 217t94 217t260 71q171 0 257.5 -82.5t86.5 -236.5v-16h-516v-2q0 -46 45 -87.5t127 -41.5q108 0 146 70zM212 325h334v2q0 13 -8.5 31t-25.5 39t-52 35t-80 14q-39 0 -70.5 -11t-49 -27t-29 -34t-15.5 -29.5
t-4 -17.5v-2zM148 603v118h176v-118h-176zM434 603v118h176v-118h-176z" />
    <glyph glyph-name="igrave" unicode="&#xec;" horiz-adv-x="296" 
d="M60 0v536h176v-536h-176zM95 603l-144 142h215l89 -142h-160z" />
    <glyph glyph-name="iacute" unicode="&#xed;" horiz-adv-x="296" 
d="M60 0v536h176v-536h-176zM41 603l89 142h215l-144 -142h-160z" />
    <glyph glyph-name="icircumflex" unicode="&#xee;" horiz-adv-x="296" 
d="M60 0v536h176v-536h-176zM-112 603l144 142h232l144 -142h-188l-79 81l-77 -81h-176z" />
    <glyph glyph-name="idieresis" unicode="&#xef;" horiz-adv-x="296" 
d="M60 0v536h176v-536h-176zM-83 603v118h176v-118h-176zM203 603v118h176v-118h-176z" />
    <glyph glyph-name="eth" unicode="&#xf0;" 
d="M217 253q0 -68 45.5 -108.5t126.5 -40.5t126.5 40.5t45.5 108.5q0 70 -45 108.5t-127 38.5t-127 -38.5t-45 -108.5zM422 717l114 52l67 -41l-113 -52q128 -76 187.5 -174.5t59.5 -207.5q0 -67 -18 -122t-57.5 -99t-108.5 -68.5t-164 -24.5q-165 0 -259.5 69.5
t-94.5 208.5q0 84 47.5 146t118 91t150.5 29q47 0 88.5 -14.5t65.5 -36.5h2q-38 51 -77 82t-91 52l-129 -59l-62 44l112 52q-42 20 -106 34l98 93q87 -19 170 -54z" />
    <glyph glyph-name="ntilde" unicode="&#xf1;" horiz-adv-x="741" 
d="M505 0v304q0 110 -118 110q-67 0 -109 -37.5t-42 -117.5v-259h-176v536h170v-78h2q26 37 86 64.5t133 27.5q30 0 59 -4.5t61 -18t55.5 -34t39 -56t15.5 -80.5v-357h-176zM211 607h-86q40 138 143 138q25 0 106 -22t112 -22q43 0 49 39h82q-18 -137 -130 -137
q-31 0 -120.5 25t-106.5 25q-34 0 -49 -46z" />
    <glyph glyph-name="ograve" unicode="&#xf2;" 
d="M35 268q0 146 94 217t260 71t260 -71t94 -217t-94 -217t-260 -71t-260 71t-94 217zM217 268q0 -79 45 -121.5t127 -42.5t127 42.5t45 121.5t-45 121.5t-127 42.5t-127 -42.5t-45 -121.5zM336 603l-144 142h215l89 -142h-160z" />
    <glyph glyph-name="oacute" unicode="&#xf3;" 
d="M35 268q0 146 94 217t260 71t260 -71t94 -217t-94 -217t-260 -71t-260 71t-94 217zM217 268q0 -79 45 -121.5t127 -42.5t127 42.5t45 121.5t-45 121.5t-127 42.5t-127 -42.5t-45 -121.5zM282 603l89 142h215l-144 -142h-160z" />
    <glyph glyph-name="ocircumflex" unicode="&#xf4;" 
d="M35 268q0 146 94 217t260 71t260 -71t94 -217t-94 -217t-260 -71t-260 71t-94 217zM217 268q0 -79 45 -121.5t127 -42.5t127 42.5t45 121.5t-45 121.5t-127 42.5t-127 -42.5t-45 -121.5zM129 603l144 142h232l144 -142h-188l-79 81l-77 -81h-176z" />
    <glyph glyph-name="otilde" unicode="&#xf5;" 
d="M35 268q0 146 94 217t260 71t260 -71t94 -217t-94 -217t-260 -71t-260 71t-94 217zM217 268q0 -79 45 -121.5t127 -42.5t127 42.5t45 121.5t-45 121.5t-127 42.5t-127 -42.5t-45 -121.5zM229 607h-86q40 138 143 138q25 0 106 -22t112 -22q43 0 49 39h82
q-18 -137 -130 -137q-31 0 -120.5 25t-106.5 25q-34 0 -49 -46z" />
    <glyph glyph-name="odieresis" unicode="&#xf6;" 
d="M35 268q0 146 94 217t260 71t260 -71t94 -217t-94 -217t-260 -71t-260 71t-94 217zM217 268q0 -79 45 -121.5t127 -42.5t127 42.5t45 121.5t-45 121.5t-127 42.5t-127 -42.5t-45 -121.5zM158 603v118h176v-118h-176zM444 603v118h176v-118h-176z" />
    <glyph glyph-name="divide" unicode="&#xf7;" horiz-adv-x="600" 
d="M47 191v124h506v-124h-506zM203 465q0 41 28.5 69t68.5 28t68.5 -28t28.5 -69t-28.5 -69t-68.5 -28t-68.5 28t-28.5 69zM203 41q0 41 28.5 69t68.5 28t68.5 -28t28.5 -69t-28.5 -69t-68.5 -28t-68.5 28t-28.5 69z" />
    <glyph glyph-name="oslash" unicode="&#xf8;" 
d="M238 180l267 218q-43 34 -116 34q-82 0 -127 -42.5t-45 -121.5q0 -52 21 -88zM542 353l-267 -217q41 -32 114 -32q82 0 127 42.5t45 121.5q0 50 -19 85zM29 10l76 62q-70 72 -70 196q0 146 94 217t260 71q153 0 239 -57l83 68l38 -45l-74 -61q68 -70 68 -193
q0 -146 -94 -217t-260 -71q-149 0 -237 56l-87 -71z" />
    <glyph glyph-name="ugrave" unicode="&#xf9;" horiz-adv-x="741" 
d="M511 0v72h-2q-26 -37 -86 -64.5t-133 -27.5q-30 0 -59 4.5t-61 18t-55.5 34t-39 56t-15.5 80.5v363h176v-310q0 -110 120 -110q72 0 110.5 39t38.5 113v268h176v-536h-170zM318 603l-144 142h215l89 -142h-160z" />
    <glyph glyph-name="uacute" unicode="&#xfa;" horiz-adv-x="741" 
d="M511 0v72h-2q-26 -37 -86 -64.5t-133 -27.5q-30 0 -59 4.5t-61 18t-55.5 34t-39 56t-15.5 80.5v363h176v-310q0 -110 120 -110q72 0 110.5 39t38.5 113v268h176v-536h-170zM264 603l89 142h215l-144 -142h-160z" />
    <glyph glyph-name="ucircumflex" unicode="&#xfb;" horiz-adv-x="741" 
d="M511 0v72h-2q-26 -37 -86 -64.5t-133 -27.5q-30 0 -59 4.5t-61 18t-55.5 34t-39 56t-15.5 80.5v363h176v-310q0 -110 120 -110q72 0 110.5 39t38.5 113v268h176v-536h-170zM111 603l144 142h232l144 -142h-188l-79 81l-77 -81h-176z" />
    <glyph glyph-name="udieresis" unicode="&#xfc;" horiz-adv-x="741" 
d="M511 0v72h-2q-26 -37 -86 -64.5t-133 -27.5q-30 0 -59 4.5t-61 18t-55.5 34t-39 56t-15.5 80.5v363h176v-310q0 -110 120 -110q72 0 110.5 39t38.5 113v268h176v-536h-170zM140 603v118h176v-118h-176zM426 603v118h176v-118h-176z" />
    <glyph glyph-name="yacute" unicode="&#xfd;" horiz-adv-x="648" 
d="M476 536h188l-293 -624q-31 -66 -71.5 -88.5t-116.5 -22.5q-42 0 -124 4v124q50 -4 76 -4q31 0 49 13t34 42l18 39l-252 517h191l153 -354zM217 603l89 142h215l-144 -142h-160z" />
    <glyph glyph-name="thorn" unicode="&#xfe;" 
d="M230 265q0 -73 47.5 -114t117.5 -41q71 0 118.5 41t47.5 114t-47.5 114t-118.5 41q-70 0 -117.5 -41t-47.5 -114zM60 -199v925h176v-263h2q66 87 194 87q137 0 224 -73t87 -209q0 -129 -85 -208.5t-214 -79.5q-149 0 -206 80h-2v-259h-176z" />
    <glyph glyph-name="ydieresis" unicode="&#xff;" horiz-adv-x="648" 
d="M476 536h188l-293 -624q-31 -66 -71.5 -88.5t-116.5 -22.5q-42 0 -124 4v124q50 -4 76 -4q31 0 49 13t34 42l18 39l-252 517h191l153 -354zM93 603v118h176v-118h-176zM379 603v118h176v-118h-176z" />
    <glyph glyph-name="dotlessi" unicode="&#x131;" horiz-adv-x="296" 
d="M60 0v536h176v-536h-176z" />
    <glyph glyph-name="Lslash" unicode="&#x141;" horiz-adv-x="722" 
d="M68 0v205l-68 -44v136l68 44v373h194v-246l154 100v-136l-154 -100v-190h435v-142h-629z" />
    <glyph glyph-name="lslash" unicode="&#x142;" horiz-adv-x="296" 
d="M60 0v239l-60 -46v124l60 46v363h176v-246l60 42v-124l-60 -42v-356h-176z" />
    <glyph glyph-name="OE" unicode="&#x152;" horiz-adv-x="1167" 
d="M575 0v61q-46 -44 -93.5 -62.5t-114.5 -18.5q-152 0 -242 106.5t-90 266.5q0 165 90 273t242 108q136 0 208 -76v56h548v-136h-378v-148h365v-130h-365v-164h383v-136h-553zM575 231v261q0 9 -10 25.5t-28.5 35t-52 32t-73.5 13.5q-81 0 -131.5 -65.5t-50.5 -176.5
q0 -126 53.5 -183t132.5 -57q69 0 114.5 43t45.5 72z" />
    <glyph glyph-name="oe" unicode="&#x153;" horiz-adv-x="1148" 
d="M653 319h295q-12 62 -50 94.5t-99 32.5q-117 0 -146 -127zM1116 221h-463q11 -131 153 -131q46 0 74.5 14t54.5 51h176q-42 -93 -117 -134t-184 -41q-150 0 -231 90q-81 -90 -234 -90q-86 1 -149 25t-98 65t-51.5 89t-16.5 105q0 41 9.5 80.5t32.5 78.5t58.5 68t92.5 47
t129 18q136 0 230 -88q33 37 89.5 62.5t128.5 25.5q145 0 231.5 -83t86.5 -201q0 -34 -2 -51zM511 266q0 73 -37.5 119.5t-113.5 46.5q-78 0 -116 -46.5t-38 -119.5q0 -74 38 -121t116 -47q76 0 113.5 47t37.5 121z" />
    <glyph glyph-name="Scaron" unicode="&#x160;" horiz-adv-x="815" 
d="M766 507h-215q-4 33 -21 55t-44.5 31.5t-53 13t-60.5 3.5q-59 0 -95.5 -23.5t-36.5 -60.5q0 -54 82 -67l243 -39q108 -18 168.5 -63.5t60.5 -136.5q0 -110 -86.5 -175t-284.5 -65q-50 0 -90.5 3t-90 11t-86 25t-68.5 43t-49.5 67.5t-17.5 95.5h218q2 -115 184 -115
q71 0 112 22t41 67q0 39 -28.5 55.5t-92.5 26.5l-177 27q-53 8 -91.5 19.5t-76 33.5t-57 59.5t-19.5 89.5q0 224 354 224q363 0 378 -227zM668 903l-144 -142h-232l-144 142h188l79 -81l77 81h176z" />
    <glyph glyph-name="scaron" unicode="&#x161;" horiz-adv-x="704" 
d="M29 166h194q13 -76 131 -76q127 0 127 58q0 23 -19 34t-81 20l-160 22q-90 12 -133 45.5t-43 106.5q0 180 293 180q89 0 151 -13.5t96 -40t49.5 -56.5t20.5 -71h-194q-13 71 -119 71q-115 0 -115 -57q0 -21 18 -32.5t71 -17.5l122 -13q130 -14 183.5 -53.5t53.5 -111.5
q0 -46 -20.5 -80t-51.5 -53t-77 -30t-88 -14.5t-94 -3.5q-153 0 -230.5 45.5t-84.5 140.5zM612 745l-144 -142h-232l-144 142h188l79 -81l77 81h176z" />
    <glyph glyph-name="Ydieresis" unicode="&#x178;" 
d="M292 0v249l-316 465h228l185 -311l185 311h228l-316 -465v-249h-194zM158 761v118h176v-118h-176zM444 761v118h176v-118h-176z" />
    <glyph glyph-name="Zcaron" unicode="&#x17d;" horiz-adv-x="759" 
d="M16 0v124l472 454h-440v136h695v-124l-472 -454h472v-136h-727zM640 903l-144 -142h-232l-144 142h188l79 -81l77 81h176z" />
    <glyph glyph-name="zcaron" unicode="&#x17e;" horiz-adv-x="648" 
d="M26 0v110l339 296h-320v130h565v-110l-339 -296h351v-130h-596zM584 745l-144 -142h-232l-144 142h188l79 -81l77 81h176z" />
    <glyph glyph-name="florin" unicode="&#x192;" horiz-adv-x="816" 
d="M189 304l19 92h121l35 173q17 81 70 113t141 32q36 0 118 -8l-24 -115q-30 5 -59 5q-40 0 -56.5 -22t-28.5 -80l-20 -98h122l-20 -92h-121l-65 -322q-22 -108 -71 -144.5t-169 -36.5q-38 0 -98 10l23 112q25 -4 48 -4q43 0 64 15.5t29 56.5l63 313h-121z" />
    <glyph glyph-name="circumflex" unicode="&#x2c6;" horiz-adv-x="260" 
d="M-130 603l144 142h232l144 -142h-188l-79 81l-77 -81h-176z" />
    <glyph glyph-name="caron" unicode="&#x2c7;" horiz-adv-x="260" 
d="M390 745l-144 -142h-232l-144 142h188l79 -81l77 81h176z" />
    <glyph glyph-name="uni02C9" unicode="&#x2c9;" horiz-adv-x="260" 
d="M-111 624v104h482v-104h-482z" />
    <glyph glyph-name="breve" unicode="&#x2d8;" horiz-adv-x="260" 
d="M-77 745h98q5 -61 109 -61t109 61h98q-2 -46 -22.5 -78t-53 -47.5t-64 -21.5t-67.5 -6t-67.5 6t-64 21.5t-53 47.5t-22.5 78z" />
    <glyph glyph-name="dotaccent" unicode="&#x2d9;" horiz-adv-x="260" 
d="M42 603v118h176v-118h-176z" />
    <glyph glyph-name="ring" unicode="&#x2da;" horiz-adv-x="260" 
d="M11 709q0 53 37.5 90t89.5 37t89.5 -37t37.5 -90t-37.5 -90t-89.5 -37t-89.5 37t-37.5 90zM73 709q0 -27 19 -46t46 -19t46 19t19 46t-19 46t-46 19t-46 -19t-19 -46z" />
    <glyph glyph-name="ogonek" unicode="&#x2db;" horiz-adv-x="260" 
d="M324 -137l12 -45q-46 -31 -126 -31q-126 0 -126 87q0 90 128 126h72q-31 -15 -53.5 -44t-22.5 -60q0 -47 56 -47q27 0 60 14z" />
    <glyph glyph-name="tilde" unicode="&#x2dc;" horiz-adv-x="260" 
d="M-30 607h-86q40 138 143 138q25 0 106 -22t112 -22q43 0 49 39h82q-18 -137 -130 -137q-31 0 -120.5 25t-106.5 25q-34 0 -49 -46z" />
    <glyph glyph-name="hungarumlaut" unicode="&#x2dd;" horiz-adv-x="260" 
d="M164 603l89 142h215l-144 -142h-160zM-121 603l89 142h215l-144 -142h-160z" />
    <glyph glyph-name="uni03A9" unicode="&#x3a9;" horiz-adv-x="951" 
d="M236 112v4q-70 40 -118.5 110t-48.5 164q0 138 114 231t294 93q181 0 293 -94t112 -231q0 -172 -170 -273v-4h185v-112h-359v87q86 48 135 113t49 164q0 96 -67 168t-176 72q-108 0 -178 -68.5t-70 -175.5q0 -92 51.5 -164t132.5 -109v-87h-361v112h182z" />
    <glyph glyph-name="uni03BC" unicode="&#x3bc;" horiz-adv-x="741" 
d="M681 536v-536h-170v72h-2q-28 -48 -80 -70t-97 -22q-62 0 -96 29v-208h-176v735h176v-310q0 -110 120 -110q72 0 110.5 39t38.5 113v268h176z" />
    <glyph glyph-name="pi" unicode="&#x3c0;" horiz-adv-x="767" 
d="M735 412h-90v-236q0 -112 16 -176h-157q-20 24 -20 160v252h-176q-3 -104 -25.5 -232.5t-50.5 -179.5h-158q29 74 51.5 198.5t23.5 213.5q-91 0 -129 -11l-17 90q43 35 207 35h539z" />
    <glyph glyph-name="endash" unicode="&#x2013;" horiz-adv-x="500" 
d="M0 224v124h500v-124h-500z" />
    <glyph glyph-name="emdash" unicode="&#x2014;" horiz-adv-x="1000" 
d="M0 224v124h1000v-124h-1000z" />
    <glyph glyph-name="quoteleft" unicode="&#x2018;" horiz-adv-x="370" 
d="M88 361v128q0 97 49 154.5t145 70.5v-70q-48 -13 -67 -37.5t-23 -75.5h90v-170h-194z" />
    <glyph glyph-name="quoteright" unicode="&#x2019;" horiz-adv-x="370" 
d="M88 544v170h194v-128q0 -97 -49 -154.5t-145 -70.5v70q48 13 67 37.5t23 75.5h-90z" />
    <glyph glyph-name="quotesinglbase" unicode="&#x201a;" horiz-adv-x="370" 
d="M88 0v170h194v-128q0 -97 -49 -154.5t-145 -70.5v70q48 13 67 37.5t23 75.5h-90z" />
    <glyph glyph-name="quotedblleft" unicode="&#x201c;" horiz-adv-x="592" 
d="M60 361v128q0 97 49 154.5t145 70.5v-70q-48 -13 -67 -37.5t-23 -75.5h90v-170h-194zM338 361v128q0 97 49 154.5t145 70.5v-70q-48 -13 -67 -37.5t-23 -75.5h90v-170h-194z" />
    <glyph glyph-name="quotedblright" unicode="&#x201d;" horiz-adv-x="592" 
d="M338 544v170h194v-128q0 -97 -49 -154.5t-145 -70.5v70q48 13 67 37.5t23 75.5h-90zM60 544v170h194v-128q0 -97 -49 -154.5t-145 -70.5v70q48 13 67 37.5t23 75.5h-90z" />
    <glyph glyph-name="quotedblbase" unicode="&#x201e;" horiz-adv-x="592" 
d="M338 0v170h194v-128q0 -97 -49 -154.5t-145 -70.5v70q48 13 67 37.5t23 75.5h-90zM60 0v170h194v-128q0 -97 -49 -154.5t-145 -70.5v70q48 13 67 37.5t23 75.5h-90z" />
    <glyph glyph-name="dagger" unicode="&#x2020;" horiz-adv-x="816" 
d="M317 -199v567h-240v136h240v210h182v-210h240v-136h-240v-567h-182z" />
    <glyph glyph-name="daggerdbl" unicode="&#x2021;" horiz-adv-x="816" 
d="M320 -199v205h-243v124h243v255h-243v124h243v205h176v-205h243v-124h-243v-255h243v-124h-243v-205h-176z" />
    <glyph glyph-name="bullet" unicode="&#x2022;" horiz-adv-x="500" 
d="M71 357q0 74 52.5 126.5t126.5 52.5t126.5 -52.5t52.5 -126.5t-52.5 -126.5t-126.5 -52.5t-126.5 52.5t-52.5 126.5z" />
    <glyph glyph-name="ellipsis" unicode="&#x2026;" horiz-adv-x="1000" 
d="M70 0v170h194v-170h-194zM403 0v170h194v-170h-194zM736 0v170h194v-170h-194z" />
    <glyph glyph-name="perthousand" unicode="&#x2030;" horiz-adv-x="1167" 
d="M108 534q0 -59 14.5 -85.5t54.5 -26.5t54.5 26.5t14.5 85.5t-14.5 85.5t-54.5 26.5t-54.5 -26.5t-14.5 -85.5zM114 -20l454 734h98l-454 -734h-98zM535 160q0 -59 14.5 -85.5t54.5 -26.5t54.5 26.5t14.5 85.5t-14.5 85.5t-54.5 26.5t-54.5 -26.5t-14.5 -85.5zM4 534
q0 90 46 135t127 45t127 -45t46 -135t-46 -135t-127 -45t-127 45t-46 135zM431 160q0 90 46 135t127 45t127 -45t46 -135t-46 -135t-127 -45t-127 45t-46 135zM817 160q0 90 46 135t127 45t127 -45t46 -135t-46 -135t-127 -45t-127 45t-46 135zM921 160q0 -59 14.5 -85.5
t54.5 -26.5t54.5 26.5t14.5 85.5t-14.5 85.5t-54.5 26.5t-54.5 -26.5t-14.5 -85.5z" />
    <glyph glyph-name="guilsinglleft" unicode="&#x2039;" horiz-adv-x="370" 
d="M83 207v158l194 142v-133l-120 -88l120 -88v-133z" />
    <glyph glyph-name="guilsinglright" unicode="&#x203a;" horiz-adv-x="370" 
d="M93 65v133l120 88l-120 88v133l194 -142v-158z" />
    <glyph glyph-name="fraction" unicode="&#x2044;" horiz-adv-x="167" 
d="M-145 -20l362 734h95l-362 -734h-95z" />
    <glyph glyph-name="Euro" unicode="&#x20ac;" horiz-adv-x="816" 
d="M782 637l-83 -128q-52 35 -90.5 51.5t-88.5 16.5q-133 0 -184 -117h338l-52 -90h-304q-1 -4 -1 -13v-12v-14q0 -9 1 -14h279l-52 -90h-208q50 -115 185 -115q102 0 224 70v-158q-99 -44 -226 -44q-319 0 -381 247h-104l52 90h40q-1 5 -1 13v14v13q0 8 1 13h-90l52 90h50
q37 128 134 187.5t237 59.5q158 0 272 -70z" />
    <glyph glyph-name="afii61289" unicode="&#x2113;" horiz-adv-x="674" 
d="M574 205l69 -66q-50 -79 -123.5 -116t-156.5 -37q-180 0 -221 158q0 2 -1 5t-1 4q-7 -5 -27 -18.5t-33 -20.5l-45 76q17 12 52.5 34.5t49.5 31.5v226q0 148 59.5 216.5t163.5 68.5q93 0 142.5 -53t49.5 -130q0 -93 -65 -176.5t-200 -186.5l2 -13q3 -47 34.5 -74.5
t77.5 -27.5q50 0 96 29t77 70zM287 529v-183q148 134 148 235q0 41 -17 65t-51 24q-32 0 -56 -34t-24 -107z" />
    <glyph glyph-name="trademark" unicode="&#x2122;" horiz-adv-x="1000" 
d="M856 302v282h-2l-93 -282h-98l-93 282h-2v-282h-110v412h170l83 -250h2l83 250h170v-412h-110zM157 302v314h-107v98h338v-98h-107v-314h-124z" />
    <glyph glyph-name="Omega" unicode="&#x2126;" horiz-adv-x="951" 
d="M236 112v4q-70 40 -118.5 110t-48.5 164q0 138 114 231t294 93q181 0 293 -94t112 -231q0 -172 -170 -273v-4h185v-112h-359v87q86 48 135 113t49 164q0 96 -67 168t-176 72q-108 0 -178 -68.5t-70 -175.5q0 -92 51.5 -164t132.5 -109v-87h-361v112h182z" />
    <glyph glyph-name="estimated" unicode="&#x212e;" horiz-adv-x="880" 
d="M845 337h-657q-5 0 -5 -5v-198q0 -12 9 -23q103 -108 248 -108q77 0 144.5 32.5t116.5 88.5h59q-56 -65 -140.5 -103t-180.5 -38q-168 0 -286.5 106.5t-118.5 257.5t118.5 258t286.5 107q169 0 287.5 -107t118.5 -258v-10zM696 363v199q0 15 -10 24q-104 104 -246 104
t-247 -107q-10 -9 -10 -25v-195q0 -7 5 -7h504q4 0 4 7z" />
    <glyph glyph-name="partialdiff" unicode="&#x2202;" horiz-adv-x="724" 
d="M120 624l-48 95q99 65 242 65q154 0 256.5 -108.5t102.5 -283.5q0 -176 -101.5 -291.5t-263.5 -115.5q-67 0 -121 24t-85 61.5t-47.5 78.5t-16.5 80q0 110 76.5 184.5t196.5 74.5q75 0 128.5 -35t77.5 -71h1v31q0 113 -61 185t-162 72q-94 0 -175 -46zM325 96h1
q67 0 115 53t59 124q-11 36 -53 71t-99 35q-65 0 -109 -42.5t-44 -106.5q0 -57 37 -95.5t93 -38.5z" />
    <glyph glyph-name="Delta" unicode="&#x2206;" horiz-adv-x="843" 
d="M29 0v77l298 643h191l295 -643v-77h-784zM200 114h429l-147 335q-59 137 -67 160h-5q-14 -39 -59 -146z" />
    <glyph glyph-name="product" unicode="&#x220f;" horiz-adv-x="898" 
d="M875 579h-135v-676h-151v676h-280v-676h-152v676h-135v122h853v-122z" />
    <glyph glyph-name="summation" unicode="&#x2211;" horiz-adv-x="715" 
d="M695 -97h-672v81l305 313l-288 311v93h630v-122h-411v-4l248 -264l-269 -281v-4h457v-123z" />
    <glyph glyph-name="minus" unicode="&#x2212;" horiz-adv-x="600" 
d="M47 191v124h506v-124h-506z" />
    <glyph glyph-name="uni2215" unicode="&#x2215;" horiz-adv-x="167" 
d="M-145 -20l362 734h95l-362 -734h-95z" />
    <glyph glyph-name="uni2219" unicode="&#x2219;" horiz-adv-x="370" 
d="M82 275q0 42 31 72.5t72 30.5t72 -30.5t31 -72.5t-31 -72.5t-72 -30.5t-72 30.5t-31 72.5z" />
    <glyph glyph-name="radical" unicode="&#x221a;" horiz-adv-x="739" 
d="M764 834l-292 -989h-124l-199 447l-89 -35l-28 71l206 84l146 -357q3 -8 8.5 -23.5t10 -28t8.5 -23.5h2q7 31 20 78l218 776h113z" />
    <glyph glyph-name="infinity" unicode="&#x221e;" horiz-adv-x="881" 
d="M827 292v-1q0 -86 -54 -139t-128 -53q-105 0 -206 127q-51 -62 -98 -94.5t-109 -32.5q-73 0 -126 52.5t-53 133.5q0 84 54 137.5t135 53.5q107 0 205 -125q3 3 15 16.5l16 18t15.5 16.5t18 17t18.5 15t20.5 14.5t21.5 11t24.5 9.5t25.5 5t29 2q76 -1 126 -51.5t50 -132.5
zM241 176h2q29 0 61 20t48 37t45 50q-23 31 -34.5 45t-33 34.5t-44 29t-48.5 8.5q-45 0 -74 -32t-29 -83q0 -45 30.5 -77t76.5 -32zM643 400h-1q-14 0 -27.5 -3.5t-27 -12t-23 -15t-23 -20t-19.5 -20t-19.5 -22t-15.5 -18.5q52 -63 87 -88t73 -25q45 0 72 34t27 75
q0 52 -28.5 83.5t-74.5 31.5z" />
    <glyph glyph-name="integral" unicode="&#x222b;" horiz-adv-x="441" 
d="M435 854l-16 -89q-22 9 -47 9q-42 0 -64 -28q-32 -40 -32 -167q0 -79 9.5 -234.5t9.5 -245.5q0 -130 -45 -197q-47 -77 -149 -77q-60 0 -96 18l19 94q24 -12 56 -12q37 0 57 23q38 41 38 155q0 91 -10 250t-10 242q0 86 17.5 139.5t55.5 88.5q46 45 135 45q42 0 72 -14z
" />
    <glyph glyph-name="approxequal" unicode="&#x2248;" horiz-adv-x="681" 
d="M580 475l55 -56q-74 -108 -169 -108q-25 0 -49 6.5t-41 14t-50 24.5q-66 35 -105 35q-62 0 -126 -79l-54 57q29 46 80 76.5t104 30.5q58 0 128 -40q30 -17 41.5 -23t29.5 -11.5t38 -5.5q63 0 118 79zM580 266l55 -56q-75 -108 -170 -108q-35 0 -63.5 10.5t-75.5 35.5
q-64 34 -105 34q-38 0 -66 -20t-60 -59l-54 57q29 46 80 77t104 31q55 0 127 -40q6 -3 20 -11t21.5 -11.5t19.5 -8.5t23.5 -7t24.5 -2q35 0 62 18.5t57 59.5z" />
    <glyph glyph-name="notequal" unicode="&#x2260;" horiz-adv-x="681" 
d="M499 539l-46 -97h170v-83h-208l-70 -147h278v-83h-316l-63 -133l-69 33l48 100h-165v83h203l70 147h-273v83h311l61 130z" />
    <glyph glyph-name="lessequal" unicode="&#x2264;" horiz-adv-x="681" 
d="M622 117l-561 241v88l560 240v-92l-466 -191v-2l467 -192v-92zM623 -8h-566v85h566v-85z" />
    <glyph glyph-name="greaterequal" unicode="&#x2265;" horiz-adv-x="681" 
d="M61 686l561 -241v-88l-560 -240v92l466 192v2l-467 191v92zM618 -8h-559v85h559v-85z" />
    <glyph glyph-name="lozenge" unicode="&#x25ca;" horiz-adv-x="740" 
d="M682 350l-255 -401h-117l-253 401l253 401h117zM548 347l-159 262q-17 29 -21 39h-2q-18 -33 -22 -39l-155 -257l160 -262q19 -35 20 -39h3q15 30 21 39z" />
    <hkern u1="T" u2="&#x161;" k="19" />
    <hkern u1="T" u2="&#xfc;" k="37" />
    <hkern u1="T" u2="&#xf6;" k="46" />
    <hkern u1="T" u2="&#xf2;" k="46" />
    <hkern u1="T" u2="&#xee;" k="-7" />
    <hkern u1="T" u2="&#xed;" k="19" />
    <hkern u1="T" u2="&#xec;" k="-19" />
    <hkern u1="T" u2="&#xeb;" k="46" />
    <hkern u1="T" u2="&#xea;" k="69" />
    <hkern u1="T" u2="&#xe8;" k="69" />
    <hkern u1="T" u2="&#xe5;" k="46" />
    <hkern u1="T" u2="&#xe4;" k="23" />
    <hkern u1="T" u2="&#xe3;" k="46" />
    <hkern u1="T" u2="&#xe2;" k="46" />
    <hkern u1="T" u2="&#xe0;" k="46" />
    <hkern u1="V" u2="&#xf6;" k="28" />
    <hkern u1="V" u2="&#xf4;" k="41" />
    <hkern u1="V" u2="&#xee;" k="-4" />
    <hkern u1="V" u2="&#xeb;" k="28" />
    <hkern u1="V" u2="&#xea;" k="28" />
    <hkern u1="V" u2="&#xe8;" k="28" />
    <hkern u1="V" u2="&#xe5;" k="28" />
    <hkern u1="V" u2="&#xe4;" k="28" />
    <hkern u1="V" u2="&#xe3;" k="28" />
    <hkern u1="V" u2="&#xe2;" k="28" />
    <hkern u1="V" u2="&#xe0;" k="28" />
    <hkern u1="W" u2="&#xfc;" k="14" />
    <hkern u1="W" u2="&#xf6;" k="28" />
    <hkern u1="W" u2="&#xea;" k="28" />
    <hkern u1="W" u2="&#xe4;" k="28" />
    <hkern u1="Y" u2="&#xfc;" k="28" />
    <hkern u1="Y" u2="&#xf6;" k="56" />
    <hkern u1="&#x2018;" u2="&#x2018;" k="92" />
    <hkern u1="&#x2019;" u2="&#x2019;" k="92" />
    <hkern g1="A,Agrave,Aacute,Acircumflex,Atilde,Adieresis,Aring"
	g2="T"
	k="55" />
    <hkern g1="A,Agrave,Aacute,Acircumflex,Atilde,Adieresis,Aring"
	g2="v"
	k="18" />
    <hkern g1="A,Agrave,Aacute,Acircumflex,Atilde,Adieresis,Aring"
	g2="V"
	k="37" />
    <hkern g1="A,Agrave,Aacute,Acircumflex,Atilde,Adieresis,Aring"
	g2="w"
	k="18" />
    <hkern g1="A,Agrave,Aacute,Acircumflex,Atilde,Adieresis,Aring"
	g2="W"
	k="18" />
    <hkern g1="A,Agrave,Aacute,Acircumflex,Atilde,Adieresis,Aring"
	g2="y,yacute,ydieresis"
	k="18" />
    <hkern g1="A,Agrave,Aacute,Acircumflex,Atilde,Adieresis,Aring"
	g2="Y,Yacute,Ydieresis"
	k="55" />
    <hkern g1="A,Agrave,Aacute,Acircumflex,Atilde,Adieresis,Aring"
	g2="quoteright"
	k="74" />
    <hkern g1="F"
	g2="A,Agrave,Aacute,Acircumflex,Atilde,Adieresis,Aring,AE"
	k="37" />
    <hkern g1="F"
	g2="comma"
	k="129" />
    <hkern g1="F"
	g2="period"
	k="129" />
    <hkern g1="L,Lslash"
	g2="T"
	k="92" />
    <hkern g1="L,Lslash"
	g2="V"
	k="74" />
    <hkern g1="L,Lslash"
	g2="W"
	k="74" />
    <hkern g1="L,Lslash"
	g2="y,yacute,ydieresis"
	k="37" />
    <hkern g1="L,Lslash"
	g2="Y,Yacute,Ydieresis"
	k="92" />
    <hkern g1="L,Lslash"
	g2="quoteright"
	k="150" />
    <hkern g1="P"
	g2="A,Agrave,Aacute,Acircumflex,Atilde,Adieresis,Aring,AE"
	k="55" />
    <hkern g1="P"
	g2="comma"
	k="129" />
    <hkern g1="P"
	g2="period"
	k="129" />
    <hkern g1="r"
	g2="comma"
	k="74" />
    <hkern g1="r"
	g2="period"
	k="74" />
    <hkern g1="r"
	g2="hyphen"
	k="37" />
    <hkern g1="T"
	g2="w"
	k="74" />
    <hkern g1="T"
	g2="y,yacute,ydieresis"
	k="74" />
    <hkern g1="T"
	g2="A,Agrave,Aacute,Acircumflex,Atilde,Adieresis,Aring,AE"
	k="37" />
    <hkern g1="T"
	g2="comma"
	k="92" />
    <hkern g1="T"
	g2="period"
	k="92" />
    <hkern g1="T"
	g2="hyphen"
	k="111" />
    <hkern g1="T"
	g2="a,agrave,aacute,acircumflex,atilde,adieresis,aring,ae"
	k="92" />
    <hkern g1="T"
	g2="c,ccedilla"
	k="92" />
    <hkern g1="T"
	g2="e,egrave,eacute,ecircumflex,edieresis"
	k="92" />
    <hkern g1="T"
	g2="i,igrave,iacute,icircumflex,idieresis"
	k="37" />
    <hkern g1="T"
	g2="o,ograve,oacute,ocircumflex,otilde,odieresis,oslash,oe"
	k="92" />
    <hkern g1="T"
	g2="r"
	k="74" />
    <hkern g1="T"
	g2="s,scaron"
	k="74" />
    <hkern g1="T"
	g2="u,ugrave,uacute,ucircumflex,udieresis"
	k="74" />
    <hkern g1="T"
	g2="colon"
	k="74" />
    <hkern g1="T"
	g2="semicolon"
	k="74" />
    <hkern g1="v"
	g2="comma"
	k="74" />
    <hkern g1="v"
	g2="period"
	k="74" />
    <hkern g1="V"
	g2="y,yacute,ydieresis"
	k="18" />
    <hkern g1="V"
	g2="A,Agrave,Aacute,Acircumflex,Atilde,Adieresis,Aring,AE"
	k="55" />
    <hkern g1="V"
	g2="comma"
	k="92" />
    <hkern g1="V"
	g2="period"
	k="92" />
    <hkern g1="V"
	g2="hyphen"
	k="55" />
    <hkern g1="V"
	g2="a,agrave,aacute,acircumflex,atilde,adieresis,aring,ae"
	k="55" />
    <hkern g1="V"
	g2="e,egrave,eacute,ecircumflex,edieresis"
	k="55" />
    <hkern g1="V"
	g2="i,igrave,iacute,icircumflex,idieresis"
	k="18" />
    <hkern g1="V"
	g2="o,ograve,oacute,ocircumflex,otilde,odieresis,oslash,oe"
	k="55" />
    <hkern g1="V"
	g2="r"
	k="37" />
    <hkern g1="V"
	g2="u,ugrave,uacute,ucircumflex,udieresis"
	k="37" />
    <hkern g1="V"
	g2="colon"
	k="37" />
    <hkern g1="V"
	g2="semicolon"
	k="37" />
    <hkern g1="w"
	g2="comma"
	k="55" />
    <hkern g1="w"
	g2="period"
	k="55" />
    <hkern g1="W"
	g2="A,Agrave,Aacute,Acircumflex,Atilde,Adieresis,Aring,AE"
	k="18" />
    <hkern g1="W"
	g2="comma"
	k="55" />
    <hkern g1="W"
	g2="period"
	k="55" />
    <hkern g1="W"
	g2="hyphen"
	k="37" />
    <hkern g1="W"
	g2="a,agrave,aacute,acircumflex,atilde,adieresis,aring,ae"
	k="37" />
    <hkern g1="W"
	g2="e,egrave,eacute,ecircumflex,edieresis"
	k="37" />
    <hkern g1="W"
	g2="o,ograve,oacute,ocircumflex,otilde,odieresis,oslash,oe"
	k="37" />
    <hkern g1="W"
	g2="r"
	k="18" />
    <hkern g1="W"
	g2="u,ugrave,uacute,ucircumflex,udieresis"
	k="18" />
    <hkern g1="W"
	g2="colon"
	k="37" />
    <hkern g1="W"
	g2="semicolon"
	k="37" />
    <hkern g1="y,yacute,ydieresis"
	g2="comma"
	k="92" />
    <hkern g1="y,yacute,ydieresis"
	g2="period"
	k="74" />
    <hkern g1="Y,Yacute,Ydieresis"
	g2="v"
	k="18" />
    <hkern g1="Y,Yacute,Ydieresis"
	g2="A,Agrave,Aacute,Acircumflex,Atilde,Adieresis,Aring,AE"
	k="55" />
    <hkern g1="Y,Yacute,Ydieresis"
	g2="comma"
	k="129" />
    <hkern g1="Y,Yacute,Ydieresis"
	g2="period"
	k="129" />
    <hkern g1="Y,Yacute,Ydieresis"
	g2="hyphen"
	k="92" />
    <hkern g1="Y,Yacute,Ydieresis"
	g2="a,agrave,aacute,acircumflex,atilde,adieresis,aring,ae"
	k="55" />
    <hkern g1="Y,Yacute,Ydieresis"
	g2="e,egrave,eacute,ecircumflex,edieresis"
	k="55" />
    <hkern g1="Y,Yacute,Ydieresis"
	g2="i,igrave,iacute,icircumflex,idieresis"
	k="18" />
    <hkern g1="Y,Yacute,Ydieresis"
	g2="o,ograve,oacute,ocircumflex,otilde,odieresis,oslash,oe"
	k="74" />
    <hkern g1="Y,Yacute,Ydieresis"
	g2="u,ugrave,uacute,ucircumflex,udieresis"
	k="37" />
    <hkern g1="Y,Yacute,Ydieresis"
	g2="colon"
	k="55" />
    <hkern g1="Y,Yacute,Ydieresis"
	g2="semicolon"
	k="55" />
    <hkern g1="Y,Yacute,Ydieresis"
	g2="p"
	k="37" />
    <hkern g1="Y,Yacute,Ydieresis"
	g2="q"
	k="55" />
    <hkern g1="quoteright"
	g2="s,scaron"
	k="55" />
  </font>
</defs></svg>
